<?xml version="1.0" encoding="utf-8"?>
<!DOCTYPE eagle SYSTEM "eagle.dtd">
<eagle version="7.5.0">
<drawing>
<settings>
<setting alwaysvectorfont="no"/>
<setting verticaltext="up"/>
</settings>
<grid distance="0.1" unitdist="mm" unit="mm" style="lines" multiple="10" display="yes" altdistance="0.05" altunitdist="mm" altunit="mm"/>
<layers>
<layer number="1" name="Top" color="4" fill="1" visible="yes" active="yes"/>
<layer number="2" name="Route2" color="1" fill="3" visible="no" active="no"/>
<layer number="3" name="Route3" color="4" fill="3" visible="no" active="no"/>
<layer number="14" name="Route14" color="1" fill="6" visible="no" active="no"/>
<layer number="15" name="Route15" color="4" fill="6" visible="no" active="no"/>
<layer number="16" name="Bottom" color="1" fill="1" visible="yes" active="yes"/>
<layer number="17" name="Pads" color="2" fill="1" visible="yes" active="yes"/>
<layer number="18" name="Vias" color="2" fill="1" visible="yes" active="yes"/>
<layer number="19" name="Unrouted" color="6" fill="1" visible="yes" active="yes"/>
<layer number="20" name="Dimension" color="15" fill="1" visible="yes" active="yes"/>
<layer number="21" name="tPlace" color="7" fill="1" visible="yes" active="yes"/>
<layer number="22" name="bPlace" color="7" fill="1" visible="yes" active="yes"/>
<layer number="23" name="tOrigins" color="15" fill="1" visible="yes" active="yes"/>
<layer number="24" name="bOrigins" color="15" fill="1" visible="yes" active="yes"/>
<layer number="25" name="tNames" color="7" fill="1" visible="no" active="yes"/>
<layer number="26" name="bNames" color="7" fill="1" visible="no" active="yes"/>
<layer number="27" name="tValues" color="7" fill="1" visible="no" active="yes"/>
<layer number="28" name="bValues" color="7" fill="1" visible="no" active="yes"/>
<layer number="29" name="tStop" color="7" fill="3" visible="yes" active="yes"/>
<layer number="30" name="bStop" color="7" fill="6" visible="yes" active="yes"/>
<layer number="31" name="tCream" color="7" fill="4" visible="yes" active="yes"/>
<layer number="32" name="bCream" color="7" fill="5" visible="yes" active="yes"/>
<layer number="33" name="tFinish" color="6" fill="3" visible="yes" active="yes"/>
<layer number="34" name="bFinish" color="6" fill="6" visible="yes" active="yes"/>
<layer number="35" name="tGlue" color="7" fill="4" visible="yes" active="yes"/>
<layer number="36" name="bGlue" color="7" fill="5" visible="yes" active="yes"/>
<layer number="37" name="tTest" color="7" fill="1" visible="yes" active="yes"/>
<layer number="38" name="bTest" color="7" fill="1" visible="yes" active="yes"/>
<layer number="39" name="tKeepout" color="4" fill="11" visible="yes" active="yes"/>
<layer number="40" name="bKeepout" color="1" fill="11" visible="yes" active="yes"/>
<layer number="41" name="tRestrict" color="4" fill="10" visible="yes" active="yes"/>
<layer number="42" name="bRestrict" color="1" fill="10" visible="yes" active="yes"/>
<layer number="43" name="vRestrict" color="2" fill="10" visible="no" active="yes"/>
<layer number="44" name="Drills" color="7" fill="1" visible="no" active="yes"/>
<layer number="45" name="Holes" color="7" fill="1" visible="no" active="yes"/>
<layer number="46" name="Milling" color="3" fill="1" visible="no" active="yes"/>
<layer number="47" name="Measures" color="7" fill="1" visible="yes" active="yes"/>
<layer number="48" name="Document" color="7" fill="1" visible="no" active="yes"/>
<layer number="49" name="Reference" color="7" fill="1" visible="no" active="yes"/>
<layer number="50" name="dxf" color="7" fill="1" visible="no" active="no"/>
<layer number="51" name="tDocu" color="7" fill="1" visible="no" active="yes"/>
<layer number="52" name="bDocu" color="7" fill="1" visible="no" active="yes"/>
<layer number="53" name="tGND_GNDA" color="7" fill="9" visible="no" active="no"/>
<layer number="54" name="bGND_GNDA" color="1" fill="9" visible="no" active="no"/>
<layer number="56" name="wert" color="7" fill="1" visible="no" active="no"/>
<layer number="57" name="tCAD" color="7" fill="1" visible="no" active="no"/>
<layer number="90" name="Modules" color="5" fill="1" visible="no" active="no"/>
<layer number="91" name="Nets" color="2" fill="1" visible="no" active="no"/>
<layer number="92" name="Busses" color="1" fill="1" visible="no" active="no"/>
<layer number="93" name="Pins" color="2" fill="1" visible="no" active="no"/>
<layer number="94" name="Symbols" color="4" fill="1" visible="no" active="no"/>
<layer number="95" name="Names" color="7" fill="1" visible="no" active="no"/>
<layer number="96" name="Values" color="7" fill="1" visible="no" active="no"/>
<layer number="97" name="Info" color="7" fill="1" visible="no" active="no"/>
<layer number="98" name="Guide" color="6" fill="1" visible="no" active="no"/>
<layer number="99" name="SpiceOrder" color="5" fill="1" visible="no" active="no"/>
<layer number="100" name="Muster" color="7" fill="1" visible="no" active="no"/>
<layer number="101" name="Patch_Top" color="12" fill="4" visible="no" active="yes"/>
<layer number="102" name="Vscore" color="7" fill="1" visible="yes" active="yes"/>
<layer number="103" name="tMap" color="7" fill="1" visible="no" active="yes"/>
<layer number="104" name="Name" color="16" fill="1" visible="no" active="yes"/>
<layer number="105" name="tPlate" color="7" fill="1" visible="yes" active="yes"/>
<layer number="106" name="bPlate" color="7" fill="1" visible="no" active="yes"/>
<layer number="107" name="tLabels" color="7" fill="1" visible="yes" active="yes"/>
<layer number="108" name="tplace-old" color="10" fill="1" visible="no" active="yes"/>
<layer number="109" name="ref-old" color="11" fill="1" visible="no" active="yes"/>
<layer number="110" name="fp0" color="7" fill="1" visible="no" active="yes"/>
<layer number="111" name="LPC17xx" color="7" fill="1" visible="no" active="yes"/>
<layer number="112" name="tSilk" color="7" fill="1" visible="no" active="yes"/>
<layer number="113" name="IDFDebug" color="4" fill="1" visible="no" active="yes"/>
<layer number="116" name="Patch_BOT" color="9" fill="4" visible="no" active="yes"/>
<layer number="121" name="_tsilk" color="7" fill="1" visible="no" active="yes"/>
<layer number="122" name="_bsilk" color="7" fill="1" visible="no" active="yes"/>
<layer number="123" name="tTestmark" color="7" fill="1" visible="no" active="yes"/>
<layer number="124" name="bTestmark" color="7" fill="1" visible="no" active="yes"/>
<layer number="125" name="_tNames" color="7" fill="1" visible="no" active="yes"/>
<layer number="126" name="_bNames" color="7" fill="1" visible="no" active="yes"/>
<layer number="127" name="_tValues" color="7" fill="1" visible="no" active="yes"/>
<layer number="128" name="_bValues" color="7" fill="1" visible="no" active="yes"/>
<layer number="131" name="tAdjust" color="7" fill="1" visible="no" active="yes"/>
<layer number="132" name="bAdjust" color="7" fill="1" visible="no" active="yes"/>
<layer number="144" name="Drill_legend" color="7" fill="1" visible="no" active="yes"/>
<layer number="150" name="Notes" color="7" fill="1" visible="no" active="yes"/>
<layer number="151" name="HeatSink" color="7" fill="1" visible="no" active="yes"/>
<layer number="152" name="_bDocu" color="7" fill="1" visible="no" active="yes"/>
<layer number="153" name="FabDoc1" color="7" fill="1" visible="no" active="yes"/>
<layer number="154" name="FabDoc2" color="7" fill="1" visible="no" active="yes"/>
<layer number="155" name="FabDoc3" color="7" fill="1" visible="no" active="yes"/>
<layer number="199" name="Contour" color="7" fill="1" visible="no" active="yes"/>
<layer number="200" name="200bmp" color="1" fill="10" visible="no" active="yes"/>
<layer number="201" name="201bmp" color="2" fill="10" visible="no" active="yes"/>
<layer number="202" name="202bmp" color="3" fill="10" visible="no" active="yes"/>
<layer number="203" name="203bmp" color="4" fill="10" visible="no" active="yes"/>
<layer number="204" name="204bmp" color="5" fill="10" visible="no" active="yes"/>
<layer number="205" name="205bmp" color="6" fill="10" visible="no" active="yes"/>
<layer number="206" name="206bmp" color="7" fill="10" visible="no" active="yes"/>
<layer number="207" name="207bmp" color="8" fill="10" visible="no" active="yes"/>
<layer number="208" name="208bmp" color="9" fill="10" visible="no" active="yes"/>
<layer number="209" name="209bmp" color="7" fill="1" visible="no" active="yes"/>
<layer number="210" name="210bmp" color="7" fill="1" visible="no" active="yes"/>
<layer number="211" name="211bmp" color="7" fill="1" visible="no" active="yes"/>
<layer number="212" name="212bmp" color="7" fill="1" visible="no" active="yes"/>
<layer number="213" name="213bmp" color="7" fill="1" visible="no" active="yes"/>
<layer number="214" name="214bmp" color="7" fill="1" visible="no" active="yes"/>
<layer number="215" name="215bmp" color="7" fill="1" visible="no" active="yes"/>
<layer number="216" name="216bmp" color="7" fill="1" visible="no" active="yes"/>
<layer number="217" name="217bmp" color="18" fill="1" visible="no" active="no"/>
<layer number="218" name="218bmp" color="19" fill="1" visible="no" active="no"/>
<layer number="219" name="219bmp" color="20" fill="1" visible="no" active="no"/>
<layer number="220" name="220bmp" color="21" fill="1" visible="no" active="no"/>
<layer number="221" name="221bmp" color="22" fill="1" visible="no" active="no"/>
<layer number="222" name="222bmp" color="23" fill="1" visible="no" active="no"/>
<layer number="223" name="223bmp" color="24" fill="1" visible="no" active="no"/>
<layer number="224" name="224bmp" color="25" fill="1" visible="no" active="no"/>
<layer number="248" name="Housing" color="7" fill="1" visible="no" active="yes"/>
<layer number="249" name="Edge" color="7" fill="1" visible="no" active="yes"/>
<layer number="250" name="Descript" color="3" fill="1" visible="no" active="no"/>
<layer number="251" name="SMDround" color="12" fill="11" visible="no" active="no"/>
<layer number="254" name="cooling" color="7" fill="1" visible="no" active="yes"/>
</layers>
<board>
<plain>
<wire x1="0" y1="3" x2="0" y2="35" width="0.1" layer="20"/>
<wire x1="0" y1="35" x2="3" y2="38" width="0.1" layer="20" curve="-90"/>
<wire x1="3" y1="38" x2="65" y2="38" width="0.1" layer="20"/>
<wire x1="65" y1="38" x2="68" y2="35" width="0.1" layer="20" curve="-90"/>
<wire x1="68" y1="35" x2="68" y2="3" width="0.1" layer="20"/>
<wire x1="68" y1="3" x2="65" y2="0" width="0.1" layer="20" curve="-90"/>
<wire x1="65" y1="0" x2="3" y2="0" width="0.1" layer="20"/>
<wire x1="3" y1="0" x2="0" y2="3" width="0.1" layer="20" curve="-90"/>
<wire x1="16" y1="7.975" x2="16" y2="29.35" width="0.1" layer="51"/>
<wire x1="16" y1="29.35" x2="56" y2="29.35" width="0.1" layer="51"/>
<wire x1="56" y1="29.35" x2="56" y2="7.975" width="0.1" layer="51"/>
<wire x1="56" y1="7.975" x2="16" y2="7.975" width="0.1" layer="51"/>
<wire x1="54.5" y1="29.35" x2="56" y2="27.85" width="0.2032" layer="21" curve="-90"/>
<wire x1="56" y1="27.85" x2="56" y2="25.85" width="0.2032" layer="21"/>
<wire x1="52.5" y1="29.35" x2="54.5" y2="29.35" width="0.2032" layer="21"/>
<wire x1="17.5" y1="7.975" x2="16" y2="9.475" width="0.2032" layer="21" curve="-90"/>
<wire x1="17.5" y1="7.975" x2="19.5" y2="7.975" width="0.2032" layer="21"/>
<wire x1="16" y1="9.475" x2="16" y2="11.475" width="0.2032" layer="21"/>
<wire x1="56" y1="9.475" x2="54.5" y2="7.975" width="0.2032" layer="21" curve="-90"/>
<wire x1="56" y1="11.475" x2="56" y2="9.475" width="0.2032" layer="21"/>
<wire x1="52.5" y1="7.975" x2="54.5" y2="7.975" width="0.2032" layer="21"/>
<hole x="27" y="30.4" drill="2"/>
<hole x="50" y="30.4" drill="2"/>
<hole x="57" y="21" drill="2"/>
<hole x="15" y="21" drill="2"/>
<text x="41" y="34" size="1" layer="107" font="vector" ratio="20" rot="SR270" align="center-left">GND</text>
<text x="43.6" y="34" size="1" layer="107" font="vector" ratio="20" rot="SR270" align="center-left">+5V</text>
<text x="26" y="11" size="1" layer="107" font="vector" ratio="20" rot="SR0">1 MISO</text>
<text x="19" y="11" size="1" layer="107" font="vector" ratio="20" rot="SR0">2 VCC</text>
<text x="26" y="13" size="1" layer="107" font="vector" ratio="20" rot="SR0">3 SCK</text>
<text x="19" y="13" size="1" layer="107" font="vector" ratio="20" rot="SR0">4 MOSI</text>
<text x="19" y="15" size="1" layer="107" font="vector" ratio="20" rot="SR0">6 GND</text>
<text x="26" y="15" size="1" layer="107" font="vector" ratio="20" rot="SR0">5 RESET</text>
<wire x1="18" y1="17" x2="25" y2="17" width="0.2032" layer="107"/>
<wire x1="25" y1="17" x2="33" y2="17" width="0.2032" layer="107"/>
<wire x1="33" y1="17" x2="33" y2="10" width="0.2032" layer="107"/>
<wire x1="33" y1="10" x2="25" y2="10" width="0.2032" layer="107"/>
<wire x1="25" y1="10" x2="18" y2="10" width="0.2032" layer="107"/>
<wire x1="18" y1="10" x2="18" y2="17" width="0.2032" layer="107"/>
<wire x1="25" y1="17" x2="25" y2="10" width="0.2032" layer="107"/>
<text x="22.6" y="23.4" size="0.8128" layer="107" font="vector" ratio="20" align="top-center">1</text>
<text x="21.6" y="23.4" size="0.8128" layer="107" font="vector" ratio="20" align="top-center">2</text>
<text x="20.6" y="23.4" size="0.8128" layer="107" font="vector" ratio="20" align="top-center">3</text>
<text x="19.6" y="23.4" size="0.8128" layer="107" font="vector" ratio="20" align="top-center">4</text>
<text x="18.6" y="23.4" size="0.8128" layer="107" font="vector" ratio="20" align="top-center">5</text>
<text x="17.6" y="23.4" size="0.8128" layer="107" font="vector" ratio="20" align="top-center">6</text>
<circle x="27" y="30.4" radius="1.7" width="0.5" layer="107"/>
<hole x="36" y="11.6" drill="2"/>
<text x="30" y="27" size="1.3" layer="107" font="vector" ratio="20" align="top-left">AVR ISP adapter board
for Super DUBEC.
Rev. 2</text>
<text x="7.5" y="3.1" size="1.1" layer="107" font="vector" ratio="20">http://TURBOFUNCTION.com/fpv</text>
<text x="18" y="18" size="1" layer="107" font="vector" ratio="20">ISP connector pins:</text>
<hole x="36" y="6.9" drill="2"/>
<circle x="50" y="30.4" radius="1.7" width="0.5" layer="107"/>
<circle x="57" y="21" radius="1.7" width="0.5" layer="107"/>
<circle x="36" y="11.6" radius="1.7" width="0.5" layer="107"/>
<circle x="36" y="6.9" radius="1.7" width="0.5" layer="107"/>
<circle x="15" y="21" radius="1.7" width="0.5" layer="107"/>
<text x="33.4" y="34" size="1" layer="107" font="vector" ratio="20" rot="SR270" align="center-left">GND</text>
<text x="7.5" y="1.6" size="0.8128" layer="107" font="vector" ratio="20">201x-xx-xx</text>
<rectangle x1="15.1" y1="29.45" x2="22.9" y2="30.25" layer="1"/>
</plain>
<libraries>
<library name="dubec">
<description>By Janne Savukoski 2014</description>
<packages>
<package name="AVX9258-8P">
<text x="-5" y="5" size="0.6" layer="25" ratio="10">&gt;NAME</text>
<text x="-5" y="4" size="0.6" layer="27">&gt;VALUE</text>
<smd name="4" x="0.5" y="-2.85" dx="0.7" dy="0.7" layer="1" stop="no" thermals="no" cream="no"/>
<smd name="5" x="-0.5" y="-2.85" dx="0.7" dy="0.7" layer="1" stop="no" thermals="no" cream="no"/>
<smd name="6" x="-1.5" y="-2.85" dx="0.7" dy="0.7" layer="1" stop="no" thermals="no" cream="no"/>
<smd name="7" x="-2.5" y="-2.85" dx="0.7" dy="0.7" layer="1" stop="no" thermals="no" cream="no"/>
<smd name="8" x="-3.5" y="-2.85" dx="0.7" dy="0.7" layer="1" stop="no" thermals="no" cream="no"/>
<smd name="3" x="1.5" y="-2.85" dx="0.7" dy="0.7" layer="1" stop="no" thermals="no" cream="no"/>
<smd name="2" x="2.5" y="-2.85" dx="0.7" dy="0.7" layer="1" stop="no" thermals="no" cream="no"/>
<smd name="1" x="3.5" y="-2.85" dx="0.7" dy="0.7" layer="1" stop="no" thermals="no" cream="no"/>
<hole x="-4.675" y="0" drill="1.2"/>
<hole x="4.675" y="0" drill="1.2"/>
<rectangle x1="-3.85" y1="-3.2" x2="-3.15" y2="-2.5" layer="29"/>
<rectangle x1="-2.85" y1="-3.2" x2="-2.15" y2="-2.5" layer="29"/>
<rectangle x1="-1.85" y1="-3.2" x2="-1.15" y2="-2.5" layer="29"/>
<rectangle x1="-0.85" y1="-3.2" x2="-0.15" y2="-2.5" layer="29"/>
<rectangle x1="0.15" y1="-3.2" x2="0.85" y2="-2.5" layer="29"/>
<rectangle x1="1.15" y1="-3.2" x2="1.85" y2="-2.5" layer="29"/>
<rectangle x1="2.15" y1="-3.2" x2="2.85" y2="-2.5" layer="29"/>
<rectangle x1="3.15" y1="-3.2" x2="3.85" y2="-2.5" layer="29"/>
<rectangle x1="-3.75" y1="-3.1" x2="-3.25" y2="-2.6" layer="31"/>
<rectangle x1="-2.75" y1="-3.1" x2="-2.25" y2="-2.6" layer="31"/>
<rectangle x1="-1.75" y1="-3.1" x2="-1.25" y2="-2.6" layer="31"/>
<rectangle x1="-0.75" y1="-3.1" x2="-0.25" y2="-2.6" layer="31"/>
<rectangle x1="0.25" y1="-3.1" x2="0.75" y2="-2.6" layer="31"/>
<rectangle x1="1.25" y1="-3.1" x2="1.75" y2="-2.6" layer="31"/>
<rectangle x1="2.25" y1="-3.1" x2="2.75" y2="-2.6" layer="31"/>
<rectangle x1="3.25" y1="-3.1" x2="3.75" y2="-2.6" layer="31"/>
<rectangle x1="-3.75" y1="2.6" x2="-3.25" y2="3.1" layer="31"/>
<rectangle x1="-3.85" y1="2.5" x2="-3.15" y2="3.2" layer="29"/>
<rectangle x1="-2.75" y1="2.6" x2="-2.25" y2="3.1" layer="31"/>
<rectangle x1="-2.85" y1="2.5" x2="-2.15" y2="3.2" layer="29"/>
<rectangle x1="-1.75" y1="2.6" x2="-1.25" y2="3.1" layer="31"/>
<rectangle x1="-1.85" y1="2.5" x2="-1.15" y2="3.2" layer="29"/>
<rectangle x1="-0.75" y1="2.6" x2="-0.25" y2="3.1" layer="31"/>
<rectangle x1="-0.85" y1="2.5" x2="-0.15" y2="3.2" layer="29"/>
<rectangle x1="0.25" y1="2.6" x2="0.75" y2="3.1" layer="31"/>
<rectangle x1="0.15" y1="2.5" x2="0.85" y2="3.2" layer="29"/>
<rectangle x1="1.25" y1="2.6" x2="1.75" y2="3.1" layer="31"/>
<rectangle x1="1.15" y1="2.5" x2="1.85" y2="3.2" layer="29"/>
<rectangle x1="2.25" y1="2.6" x2="2.75" y2="3.1" layer="31"/>
<rectangle x1="2.15" y1="2.5" x2="2.85" y2="3.2" layer="29"/>
<rectangle x1="3.25" y1="2.6" x2="3.75" y2="3.1" layer="31"/>
<rectangle x1="3.15" y1="2.5" x2="3.85" y2="3.2" layer="29"/>
<wire x1="-5.175" y1="2.75" x2="-4.125" y2="2.75" width="0.2032" layer="21"/>
<wire x1="4.125" y1="2.75" x2="5.175" y2="2.75" width="0.2032" layer="21"/>
<wire x1="-5.175" y1="-2.75" x2="-4.125" y2="-2.75" width="0.2032" layer="21"/>
<wire x1="4.125" y1="-2.75" x2="5.175" y2="-2.75" width="0.2032" layer="21"/>
<wire x1="5.175" y1="-1.05" x2="5.175" y2="-2.75" width="0.2032" layer="21"/>
<wire x1="5.175" y1="2.75" x2="5.175" y2="1.05" width="0.2032" layer="21"/>
<wire x1="-5.175" y1="-2.75" x2="-5.175" y2="-1.05" width="0.2032" layer="21"/>
<wire x1="-5.175" y1="1.05" x2="-5.175" y2="2.75" width="0.2032" layer="21"/>
<text x="0" y="0" size="0.8128" layer="21" font="vector" ratio="15" align="center">00925
80080
04063</text>
</package>
<package name="TF-EMBLEM">
<polygon width="0.381" layer="29">
<vertex x="-0.425" y="1.025"/>
<vertex x="0.45" y="1.025" curve="-90"/>
<vertex x="0.825" y="0.65"/>
<vertex x="0.825" y="-0.725" curve="-90"/>
<vertex x="0.45" y="-1.1"/>
<vertex x="-0.425" y="-1.1" curve="-90"/>
<vertex x="-0.8" y="-0.725"/>
<vertex x="-0.8" y="0.65" curve="-90"/>
</polygon>
<polygon width="0.381" layer="41">
<vertex x="-0.55" y="1.15"/>
<vertex x="0.575" y="1.15" curve="-90"/>
<vertex x="0.95" y="0.775"/>
<vertex x="0.95" y="-0.85" curve="-90"/>
<vertex x="0.575" y="-1.225"/>
<vertex x="-0.55" y="-1.225" curve="-90"/>
<vertex x="-0.925" y="-0.85"/>
<vertex x="-0.925" y="0.775" curve="-90"/>
</polygon>
<wire x1="0.325" y1="-0.475" x2="0.575" y2="-0.475" width="0.3302" layer="1"/>
<wire x1="0.325" y1="-0.475" x2="0.325" y2="-0.85" width="0.3302" layer="1"/>
<wire x1="-0.55" y1="0.525" x2="-0.3" y2="0.775" width="0.3302" layer="1" curve="-90"/>
<wire x1="-0.3" y1="0.775" x2="-0.05" y2="0.775" width="0.3302" layer="1"/>
<wire x1="-0.55" y1="0.525" x2="-0.55" y2="0.15" width="0.3302" layer="1"/>
<wire x1="-0.55" y1="0.15" x2="-0.55" y2="-0.6" width="0.3302" layer="1"/>
<wire x1="-0.55" y1="0.15" x2="-0.175" y2="0.15" width="0.3302" layer="1"/>
<wire x1="0.075" y1="-0.475" x2="0.325" y2="-0.475" width="0.3302" layer="1"/>
</package>
</packages>
</library>
<library name="SparkFun-Connectors">
<description>&lt;h3&gt;SparkFun Electronics' preferred foot prints&lt;/h3&gt;
In this library you'll find connectors and sockets- basically anything that can be plugged into or onto.&lt;br&gt;&lt;br&gt;
We've spent an enormous amount of time creating and checking these footprints and parts, but it is the end user's responsibility to ensure correctness and suitablity for a given componet or application. If you enjoy using this library, please buy one of our products at www.sparkfun.com.
&lt;br&gt;&lt;br&gt;
&lt;b&gt;Licensing:&lt;/b&gt; Creative Commons ShareAlike 4.0 International - https://creativecommons.org/licenses/by-sa/4.0/ 
&lt;br&gt;&lt;br&gt;
You are welcome to use this library for commercial purposes. For attribution, we ask that when you begin to sell your device using our footprint, you email us with a link to the product being sold. We want bragging rights that we helped (in a very small part) to create your 8th world wonder. We would like the opportunity to feature your device on our homepage.</description>
<packages>
<package name="WR-BHD-3X2">
<pad name="4" x="-1.27" y="0" drill="1.1" shape="offset" rot="R180"/>
<pad name="3" x="1.27" y="0" drill="1.1" shape="offset"/>
<pad name="6" x="-1.27" y="2.54" drill="1.1" shape="offset" rot="R180"/>
<pad name="5" x="1.27" y="2.54" drill="1.1" shape="offset"/>
<pad name="2" x="-1.27" y="-2.54" drill="1.1" shape="offset" rot="R180"/>
<pad name="1" x="1.27" y="-2.54" drill="1.1" shape="offset"/>
<wire x1="-4.55" y1="7.64" x2="4.55" y2="7.64" width="0.2032" layer="21"/>
<wire x1="4.55" y1="-7.64" x2="-4.55" y2="-7.64" width="0.2032" layer="21"/>
<wire x1="-4.55" y1="-7.64" x2="-4.55" y2="7.64" width="0.2032" layer="21"/>
<wire x1="4.55" y1="7.64" x2="4.55" y2="2.25" width="0.2032" layer="21"/>
<wire x1="4.55" y1="-2.25" x2="4.55" y2="-7.64" width="0.2032" layer="21"/>
<text x="-4" y="-6" size="0.7" layer="25">&gt;NAME</text>
<text x="-4" y="-7" size="0.7" layer="27">&gt;VALUE</text>
<text x="-4" y="6" size="0.8128" layer="21" font="vector" ratio="15">61200621621</text>
<circle x="3.3" y="-4.4" radius="0.25" width="0.5" layer="21"/>
</package>
<package name="1X02">
<wire x1="-0.635" y1="1.27" x2="0.635" y2="1.27" width="0.2032" layer="21"/>
<wire x1="0.635" y1="1.27" x2="1.27" y2="0.635" width="0.2032" layer="21"/>
<wire x1="1.27" y1="-0.635" x2="0.635" y2="-1.27" width="0.2032" layer="21"/>
<wire x1="1.27" y1="0.635" x2="1.905" y2="1.27" width="0.2032" layer="21"/>
<wire x1="1.905" y1="1.27" x2="3.175" y2="1.27" width="0.2032" layer="21"/>
<wire x1="3.175" y1="1.27" x2="3.81" y2="0.635" width="0.2032" layer="21"/>
<wire x1="3.81" y1="-0.635" x2="3.175" y2="-1.27" width="0.2032" layer="21"/>
<wire x1="3.175" y1="-1.27" x2="1.905" y2="-1.27" width="0.2032" layer="21"/>
<wire x1="1.905" y1="-1.27" x2="1.27" y2="-0.635" width="0.2032" layer="21"/>
<wire x1="-1.27" y1="0.635" x2="-1.27" y2="-0.635" width="0.2032" layer="21"/>
<wire x1="-0.635" y1="1.27" x2="-1.27" y2="0.635" width="0.2032" layer="21"/>
<wire x1="-1.27" y1="-0.635" x2="-0.635" y2="-1.27" width="0.2032" layer="21"/>
<wire x1="0.635" y1="-1.27" x2="-0.635" y2="-1.27" width="0.2032" layer="21"/>
<wire x1="3.81" y1="0.635" x2="3.81" y2="-0.635" width="0.2032" layer="21"/>
<pad name="1" x="0" y="0" drill="1.016" diameter="1.8796" rot="R90"/>
<pad name="2" x="2.54" y="0" drill="1.016" diameter="1.8796" rot="R90"/>
<text x="-1.3462" y="1.8288" size="1.27" layer="25" ratio="10">&gt;NAME</text>
<text x="-1.27" y="-3.175" size="1.27" layer="27">&gt;VALUE</text>
<rectangle x1="2.286" y1="-0.254" x2="2.794" y2="0.254" layer="51"/>
<rectangle x1="-0.254" y1="-0.254" x2="0.254" y2="0.254" layer="51"/>
</package>
<package name="1X01">
<wire x1="1.27" y1="0.635" x2="0.635" y2="1.27" width="0.2032" layer="21"/>
<wire x1="0.635" y1="1.27" x2="-0.635" y2="1.27" width="0.2032" layer="21"/>
<wire x1="-0.635" y1="1.27" x2="-1.27" y2="0.635" width="0.2032" layer="21"/>
<wire x1="-1.27" y1="0.635" x2="-1.27" y2="-0.635" width="0.2032" layer="21"/>
<wire x1="-1.27" y1="-0.635" x2="-0.635" y2="-1.27" width="0.2032" layer="21"/>
<wire x1="-0.635" y1="-1.27" x2="0.635" y2="-1.27" width="0.2032" layer="21"/>
<wire x1="0.635" y1="-1.27" x2="1.27" y2="-0.635" width="0.2032" layer="21"/>
<wire x1="1.27" y1="-0.635" x2="1.27" y2="0.635" width="0.2032" layer="21"/>
<pad name="1" x="0" y="0" drill="1.016" diameter="1.8796" rot="R90"/>
<text x="1.1938" y="1.8288" size="1.27" layer="25">&gt;NAME</text>
<text x="-1.27" y="-3.175" size="1.27" layer="27">&gt;VALUE</text>
<rectangle x1="-0.254" y1="-0.254" x2="0.254" y2="0.254" layer="51"/>
</package>
</packages>
</library>
</libraries>
<attributes>
</attributes>
<variantdefs>
</variantdefs>
<classes>
<class number="0" name="default" width="0" drill="0">
</class>
</classes>
<designrules name="default *">
<description language="de">&lt;b&gt;EAGLE Design Rules&lt;/b&gt;
&lt;p&gt;
Die Standard-Design-Rules sind so gewählt, dass sie für 
die meisten Anwendungen passen. Sollte ihre Platine 
besondere Anforderungen haben, treffen Sie die erforderlichen
Einstellungen hier und speichern die Design Rules unter 
einem neuen Namen ab.</description>
<description language="en">&lt;b&gt;EAGLE Design Rules&lt;/b&gt;
&lt;p&gt;
The default Design Rules have been set to cover
a wide range of applications. Your particular design
may have different requirements, so please make the
necessary adjustments and save your customized
design rules under a new name.</description>
<param name="layerSetup" value="(1*16)"/>
<param name="mtCopper" value="0.035mm 0.035mm 0.035mm 0.035mm 0.035mm 0.035mm 0.035mm 0.035mm 0.035mm 0.035mm 0.035mm 0.035mm 0.035mm 0.035mm 0.035mm 0.035mm"/>
<param name="mtIsolate" value="1.5mm 0.15mm 0.2mm 0.15mm 0.2mm 0.15mm 0.2mm 0.15mm 0.2mm 0.15mm 0.2mm 0.15mm 0.2mm 0.15mm 0.2mm"/>
<param name="mdWireWire" value="10mil"/>
<param name="mdWirePad" value="10mil"/>
<param name="mdWireVia" value="10mil"/>
<param name="mdPadPad" value="10mil"/>
<param name="mdPadVia" value="10mil"/>
<param name="mdViaVia" value="10mil"/>
<param name="mdSmdPad" value="0mil"/>
<param name="mdSmdVia" value="0mil"/>
<param name="mdSmdSmd" value="0mil"/>
<param name="mdViaViaSameLayer" value="8mil"/>
<param name="mnLayersViaInSmd" value="2"/>
<param name="mdCopperDimension" value="20mil"/>
<param name="mdDrill" value="12mil"/>
<param name="mdSmdStop" value="0mil"/>
<param name="msWidth" value="10mil"/>
<param name="msDrill" value="0.3mm"/>
<param name="msMicroVia" value="9.99mm"/>
<param name="msBlindViaRatio" value="0.5"/>
<param name="rvPadTop" value="0.25"/>
<param name="rvPadInner" value="0.25"/>
<param name="rvPadBottom" value="0.25"/>
<param name="rvViaOuter" value="0.25"/>
<param name="rvViaInner" value="0.25"/>
<param name="rvMicroViaOuter" value="0.25"/>
<param name="rvMicroViaInner" value="0.25"/>
<param name="rlMinPadTop" value="10mil"/>
<param name="rlMaxPadTop" value="40mil"/>
<param name="rlMinPadInner" value="10mil"/>
<param name="rlMaxPadInner" value="40mil"/>
<param name="rlMinPadBottom" value="10mil"/>
<param name="rlMaxPadBottom" value="99mm"/>
<param name="rlMinViaOuter" value="8mil"/>
<param name="rlMaxViaOuter" value="40mil"/>
<param name="rlMinViaInner" value="8mil"/>
<param name="rlMaxViaInner" value="20mil"/>
<param name="rlMinMicroViaOuter" value="4mil"/>
<param name="rlMaxMicroViaOuter" value="20mil"/>
<param name="rlMinMicroViaInner" value="4mil"/>
<param name="rlMaxMicroViaInner" value="20mil"/>
<param name="psTop" value="-1"/>
<param name="psBottom" value="-1"/>
<param name="psFirst" value="-1"/>
<param name="psElongationLong" value="100"/>
<param name="psElongationOffset" value="100"/>
<param name="mvStopFrame" value="0.25"/>
<param name="mvCreamFrame" value="0"/>
<param name="mlMinStopFrame" value="6mil"/>
<param name="mlMaxStopFrame" value="4mil"/>
<param name="mlMinCreamFrame" value="1mm"/>
<param name="mlMaxCreamFrame" value="99mm"/>
<param name="mlViaStopLimit" value="1mm"/>
<param name="srRoundness" value="0"/>
<param name="srMinRoundness" value="0mil"/>
<param name="srMaxRoundness" value="0mil"/>
<param name="slThermalIsolate" value="20mil"/>
<param name="slThermalsForVias" value="0"/>
<param name="dpMaxLengthDifference" value="10mm"/>
<param name="dpGapFactor" value="2.5"/>
<param name="checkGrid" value="0"/>
<param name="checkAngle" value="0"/>
<param name="checkFont" value="1"/>
<param name="checkRestrict" value="1"/>
<param name="useDiameter" value="13"/>
<param name="maxErrors" value="50"/>
</designrules>
<autorouter>
<pass name="Default">
<param name="RoutingGrid" value="50mil"/>
<param name="AutoGrid" value="1"/>
<param name="Efforts" value="0"/>
<param name="TopRouterVariant" value="1"/>
<param name="tpViaShape" value="round"/>
<param name="PrefDir.1" value="a"/>
<param name="PrefDir.2" value="0"/>
<param name="PrefDir.3" value="0"/>
<param name="PrefDir.4" value="0"/>
<param name="PrefDir.5" value="0"/>
<param name="PrefDir.6" value="0"/>
<param name="PrefDir.7" value="0"/>
<param name="PrefDir.8" value="0"/>
<param name="PrefDir.9" value="0"/>
<param name="PrefDir.10" value="0"/>
<param name="PrefDir.11" value="0"/>
<param name="PrefDir.12" value="0"/>
<param name="PrefDir.13" value="0"/>
<param name="PrefDir.14" value="0"/>
<param name="PrefDir.15" value="0"/>
<param name="PrefDir.16" value="a"/>
<param name="cfVia" value="8"/>
<param name="cfNonPref" value="5"/>
<param name="cfChangeDir" value="2"/>
<param name="cfOrthStep" value="2"/>
<param name="cfDiagStep" value="3"/>
<param name="cfExtdStep" value="0"/>
<param name="cfBonusStep" value="1"/>
<param name="cfMalusStep" value="1"/>
<param name="cfPadImpact" value="4"/>
<param name="cfSmdImpact" value="4"/>
<param name="cfBusImpact" value="0"/>
<param name="cfHugging" value="3"/>
<param name="cfAvoid" value="4"/>
<param name="cfPolygon" value="10"/>
<param name="cfBase.1" value="0"/>
<param name="cfBase.2" value="1"/>
<param name="cfBase.3" value="1"/>
<param name="cfBase.4" value="1"/>
<param name="cfBase.5" value="1"/>
<param name="cfBase.6" value="1"/>
<param name="cfBase.7" value="1"/>
<param name="cfBase.8" value="1"/>
<param name="cfBase.9" value="1"/>
<param name="cfBase.10" value="1"/>
<param name="cfBase.11" value="1"/>
<param name="cfBase.12" value="1"/>
<param name="cfBase.13" value="1"/>
<param name="cfBase.14" value="1"/>
<param name="cfBase.15" value="1"/>
<param name="cfBase.16" value="0"/>
<param name="mnVias" value="20"/>
<param name="mnSegments" value="9999"/>
<param name="mnExtdSteps" value="9999"/>
<param name="mnRipupLevel" value="10"/>
<param name="mnRipupSteps" value="100"/>
<param name="mnRipupTotal" value="100"/>
</pass>
<pass name="Follow-me" refer="Default" active="yes">
</pass>
<pass name="Busses" refer="Default" active="yes">
<param name="cfNonPref" value="4"/>
<param name="cfBusImpact" value="4"/>
<param name="cfHugging" value="0"/>
<param name="mnVias" value="0"/>
</pass>
<pass name="Route" refer="Default" active="yes">
</pass>
<pass name="Optimize1" refer="Default" active="yes">
<param name="cfVia" value="99"/>
<param name="cfExtdStep" value="10"/>
<param name="cfHugging" value="1"/>
<param name="mnExtdSteps" value="1"/>
<param name="mnRipupLevel" value="0"/>
</pass>
<pass name="Optimize2" refer="Optimize1" active="yes">
<param name="cfNonPref" value="0"/>
<param name="cfChangeDir" value="6"/>
<param name="cfExtdStep" value="0"/>
<param name="cfBonusStep" value="2"/>
<param name="cfMalusStep" value="2"/>
<param name="cfPadImpact" value="2"/>
<param name="cfSmdImpact" value="2"/>
<param name="cfHugging" value="0"/>
</pass>
<pass name="Optimize3" refer="Optimize2" active="yes">
<param name="cfChangeDir" value="8"/>
<param name="cfPadImpact" value="0"/>
<param name="cfSmdImpact" value="0"/>
</pass>
<pass name="Optimize4" refer="Optimize3" active="yes">
<param name="cfChangeDir" value="25"/>
</pass>
</autorouter>
<elements>
<element name="J1" library="SparkFun-Connectors" package="WR-BHD-3X2" value="" x="6" y="19">
<attribute name="MANUFACTURER" value="Wurth Electronics Inc" x="6" y="19" size="1.778" layer="27" display="off"/>
<attribute name="EURO" value="0.85" x="6" y="19" size="1.778" layer="27" display="off"/>
<attribute name="MFG_PART_#" value="61200621621" x="6" y="19" size="1.778" layer="27" display="off"/>
<attribute name="DIGIKEY_PART_#" value="732-5394-ND" x="6" y="19" size="1.778" layer="27" display="off"/>
</element>
<element name="JP1" library="SparkFun-Connectors" package="1X02" value="M02PTH" x="41" y="36"/>
<element name="U$1" library="dubec" package="AVX9258-8P" value="AVX9258" x="19" y="27">
<attribute name="MANUFACTURER" value="AVX Corporation" x="19" y="27" size="1.778" layer="27" display="off"/>
<attribute name="EURO" value="1.30" x="19" y="27" size="1.778" layer="27" display="off"/>
<attribute name="MFG_PART_#" value="009258008004063" x="19" y="27" size="1.778" layer="27" display="off"/>
<attribute name="DIGIKEY_PART_#" value="478-5495-1-ND" x="19" y="27" size="1.778" layer="27" display="off"/>
</element>
<element name="JP2" library="SparkFun-Connectors" package="1X01" value="M01PTH" x="33.38" y="36"/>
<element name="U$2" library="dubec" package="TF-EMBLEM" value="" x="5" y="3.3"/>
</elements>
<signals>
<signal name="VCC">
<contactref element="J1" pad="2"/>
<contactref element="JP1" pad="2"/>
<contactref element="U$1" pad="2"/>
<wire x1="43.54" y1="36" x2="34.96" y2="27.42" width="0.7" layer="1"/>
<wire x1="16.46" y1="16.8" x2="11.4" y2="16.8" width="0.3048" layer="1"/>
<wire x1="11.4" y1="16.8" x2="9.7" y2="15.1" width="0.3048" layer="1"/>
<wire x1="9.7" y1="15.1" x2="6.09" y2="15.1" width="0.3048" layer="1"/>
<wire x1="6.09" y1="15.1" x2="4.73" y2="16.46" width="0.3048" layer="1"/>
<wire x1="21.5" y1="24.15" x2="21.5" y2="24.8" width="0.7" layer="1"/>
<wire x1="34.96" y1="27.42" x2="26.22" y2="27.42" width="0.7" layer="1"/>
<wire x1="16.46" y1="16.8" x2="24" y2="24.34" width="0.3048" layer="1"/>
<wire x1="26.22" y1="27.42" x2="24" y2="25.2" width="0.7" layer="1"/>
<wire x1="24" y1="25.2" x2="21.9" y2="25.2" width="0.7" layer="1"/>
<wire x1="21.9" y1="25.2" x2="21.5" y2="24.8" width="0.7" layer="1"/>
<wire x1="24" y1="24.34" x2="24" y2="25.2" width="0.3048" layer="1"/>
</signal>
<signal name="MOSI">
<contactref element="J1" pad="4"/>
<contactref element="U$1" pad="4"/>
<wire x1="19.5" y1="24.15" x2="19.5" y2="22.3" width="0.3048" layer="1"/>
<wire x1="19.5" y1="22.3" x2="15.9" y2="18.7" width="0.3048" layer="1"/>
<wire x1="15.9" y1="18.7" x2="11.75" y2="18.7" width="0.3048" layer="1"/>
<wire x1="11.75" y1="18.7" x2="10.15" y2="20.3" width="0.3048" layer="1"/>
<wire x1="10.15" y1="20.3" x2="6.03" y2="20.3" width="0.3048" layer="1"/>
<wire x1="6.03" y1="20.3" x2="4.73" y2="19" width="0.3048" layer="1"/>
</signal>
<signal name="DGND">
<contactref element="J1" pad="6"/>
<contactref element="JP1" pad="1"/>
<contactref element="U$1" pad="6"/>
<wire x1="34.5" y1="28.5" x2="23.1" y2="28.5" width="0.7" layer="1"/>
<wire x1="23.1" y1="28.5" x2="19.8" y2="25.2" width="0.7" layer="1"/>
<wire x1="19.8" y1="25.2" x2="17.9" y2="25.2" width="0.7" layer="1"/>
<wire x1="17.9" y1="25.2" x2="17.5" y2="24.8" width="0.7" layer="1"/>
<wire x1="17.5" y1="24.8" x2="17.5" y2="24.15" width="0.7" layer="1"/>
<wire x1="4.73" y1="21.54" x2="6.09" y2="22.9" width="0.3048" layer="1"/>
<wire x1="6.09" y1="22.9" x2="16.9" y2="22.9" width="0.3048" layer="1"/>
<wire x1="16.9" y1="22.9" x2="17.5" y2="23.5" width="0.3048" layer="1"/>
<wire x1="17.5" y1="23.5" x2="17.5" y2="24.15" width="0.3048" layer="1"/>
<wire x1="34.5" y1="28.5" x2="41" y2="35" width="0.7" layer="1"/>
<wire x1="41" y1="35" x2="41" y2="36" width="0.7" layer="1"/>
</signal>
<signal name="MISO">
<contactref element="J1" pad="1"/>
<contactref element="U$1" pad="1"/>
<wire x1="22.3" y1="23.5" x2="16.26" y2="17.46" width="0.3048" layer="1"/>
<wire x1="16.26" y1="17.46" x2="11.16" y2="17.46" width="0.3048" layer="1"/>
<wire x1="11.16" y1="17.46" x2="10.16" y2="16.46" width="0.3048" layer="1"/>
<wire x1="10.16" y1="16.46" x2="7.27" y2="16.46" width="0.3048" layer="1"/>
<wire x1="22.3" y1="23.5" x2="22.3" y2="23.95" width="0.3048" layer="1"/>
<wire x1="22.3" y1="23.95" x2="22.5" y2="24.15" width="0.3048" layer="1"/>
</signal>
<signal name="SCK">
<contactref element="J1" pad="3"/>
<contactref element="U$1" pad="3"/>
<wire x1="20.5" y1="24.15" x2="20.5" y2="22.5" width="0.3048" layer="1"/>
<wire x1="20.5" y1="22.5" x2="16.1" y2="18.1" width="0.3048" layer="1"/>
<wire x1="16.1" y1="18.1" x2="11.1" y2="18.1" width="0.3048" layer="1"/>
<wire x1="11.1" y1="18.1" x2="10.2" y2="19" width="0.3048" layer="1"/>
<wire x1="10.2" y1="19" x2="7.27" y2="19" width="0.3048" layer="1"/>
</signal>
<signal name="RESET">
<contactref element="J1" pad="5"/>
<contactref element="U$1" pad="5"/>
<wire x1="18.5" y1="24.15" x2="18.5" y2="22.1" width="0.3048" layer="1"/>
<wire x1="18.5" y1="22.1" x2="15.7" y2="19.3" width="0.3048" layer="1"/>
<wire x1="15.7" y1="19.3" x2="12.4" y2="19.3" width="0.3048" layer="1"/>
<wire x1="12.4" y1="19.3" x2="10.16" y2="21.54" width="0.3048" layer="1"/>
<wire x1="10.16" y1="21.54" x2="7.27" y2="21.54" width="0.3048" layer="1"/>
</signal>
<signal name="GND">
<polygon width="0.3556" layer="1" isolate="0.508">
<vertex x="0" y="0"/>
<vertex x="0" y="38"/>
<vertex x="68" y="38"/>
<vertex x="68" y="0"/>
</polygon>
<via x="6" y="30" extent="1-16" drill="3.1"/>
<via x="6" y="8" extent="1-16" drill="3.1"/>
<via x="63" y="33" extent="1-16" drill="3.1"/>
<via x="63" y="5" extent="1-16" drill="3.1"/>
<contactref element="JP2" pad="1"/>
<wire x1="39.3" y1="36" x2="41.7" y2="36" width="0.3048" layer="1"/>
<polygon width="0.254" layer="16" isolate="0.508">
<vertex x="0" y="0"/>
<vertex x="0" y="38"/>
<vertex x="68" y="38"/>
<vertex x="68" y="0"/>
</polygon>
</signal>
</signals>
<errors>
<approved hash="19,1,f71843f5ebb8537f"/>
<approved hash="19,1,b2d7da2464b4c0f6"/>
<approved hash="19,1,1a5c30c17c8114f3"/>
<approved hash="19,1,8b82d26c226f7341"/>
<approved hash="19,1,7ce5eee3e1b49af6"/>
<approved hash="6,1,225321c109c10a53"/>
<approved hash="6,1,368a35fe18fe1b8a"/>
<approved hash="6,1,da81ed516b947f3e"/>
<approved hash="6,1,e7e9e6e001e000e9"/>
<approved hash="6,1,c22cc4c340c3462c"/>
<approved hash="6,1,c008c03944394408"/>
<approved hash="6,1,ec75ed8740874175"/>
<approved hash="6,1,664f65c31dc31e4f"/>
<approved hash="19,1,7583f66d066f8d41"/>
<approved hash="19,1,3457bdd5ebcf2231"/>
<approved hash="6,1,624d61c101c1024d"/>
<approved hash="6,1,029601fd02fd0196"/>
<approved hash="6,1,7e96fc4d508d1032"/>
<approved hash="6,1,83f082e7c7e7c6f0"/>
<approved hash="6,1,3a2e3cc418c41e2e"/>
<approved hash="6,1,380a383e1c3e1c0a"/>
<approved hash="6,1,1c641d8f468f4764"/>
<approved hash="6,1,724d71c101c1024d"/>
</errors>
</board>
</drawing>
<compatibility>
<note version="6.3" minversion="6.2.2" severity="warning">
Since Version 6.2.2 text objects can contain more than one line,
which will not be processed correctly with this version.
</note>
</compatibility>
</eagle>
