<?xml version="1.0" encoding="utf-8"?>
<!DOCTYPE eagle SYSTEM "eagle.dtd">
<eagle version="7.4.0">
<drawing>
<settings>
<setting alwaysvectorfont="no"/>
<setting verticaltext="up"/>
</settings>
<grid distance="0.1" unitdist="inch" unit="inch" style="lines" multiple="1" display="no" altdistance="0.01" altunitdist="inch" altunit="inch"/>
<layers>
<layer number="1" name="Top" color="4" fill="1" visible="no" active="no"/>
<layer number="2" name="Route2" color="1" fill="3" visible="no" active="no"/>
<layer number="3" name="Route3" color="4" fill="3" visible="no" active="no"/>
<layer number="14" name="Route14" color="1" fill="6" visible="no" active="no"/>
<layer number="15" name="Route15" color="4" fill="6" visible="no" active="no"/>
<layer number="16" name="Bottom" color="1" fill="1" visible="no" active="no"/>
<layer number="17" name="Pads" color="2" fill="1" visible="no" active="no"/>
<layer number="18" name="Vias" color="2" fill="1" visible="no" active="no"/>
<layer number="19" name="Unrouted" color="6" fill="1" visible="no" active="no"/>
<layer number="20" name="Dimension" color="15" fill="1" visible="no" active="no"/>
<layer number="21" name="tPlace" color="7" fill="1" visible="no" active="no"/>
<layer number="22" name="bPlace" color="7" fill="1" visible="no" active="no"/>
<layer number="23" name="tOrigins" color="15" fill="1" visible="no" active="no"/>
<layer number="24" name="bOrigins" color="15" fill="1" visible="no" active="no"/>
<layer number="25" name="tNames" color="7" fill="1" visible="no" active="no"/>
<layer number="26" name="bNames" color="7" fill="1" visible="no" active="no"/>
<layer number="27" name="tValues" color="7" fill="1" visible="no" active="no"/>
<layer number="28" name="bValues" color="7" fill="1" visible="no" active="no"/>
<layer number="29" name="tStop" color="7" fill="3" visible="no" active="no"/>
<layer number="30" name="bStop" color="7" fill="6" visible="no" active="no"/>
<layer number="31" name="tCream" color="7" fill="4" visible="no" active="no"/>
<layer number="32" name="bCream" color="7" fill="5" visible="no" active="no"/>
<layer number="33" name="tFinish" color="6" fill="3" visible="no" active="no"/>
<layer number="34" name="bFinish" color="6" fill="6" visible="no" active="no"/>
<layer number="35" name="tGlue" color="7" fill="4" visible="no" active="no"/>
<layer number="36" name="bGlue" color="7" fill="5" visible="no" active="no"/>
<layer number="37" name="tTest" color="7" fill="1" visible="no" active="no"/>
<layer number="38" name="bTest" color="7" fill="1" visible="no" active="no"/>
<layer number="39" name="tKeepout" color="4" fill="11" visible="no" active="no"/>
<layer number="40" name="bKeepout" color="1" fill="11" visible="no" active="no"/>
<layer number="41" name="tRestrict" color="4" fill="10" visible="no" active="no"/>
<layer number="42" name="bRestrict" color="1" fill="10" visible="no" active="no"/>
<layer number="43" name="vRestrict" color="2" fill="10" visible="no" active="no"/>
<layer number="44" name="Drills" color="7" fill="1" visible="no" active="no"/>
<layer number="45" name="Holes" color="7" fill="1" visible="no" active="no"/>
<layer number="46" name="Milling" color="3" fill="1" visible="no" active="no"/>
<layer number="47" name="Measures" color="7" fill="1" visible="no" active="no"/>
<layer number="48" name="Document" color="7" fill="1" visible="no" active="no"/>
<layer number="49" name="Reference" color="7" fill="1" visible="no" active="no"/>
<layer number="50" name="dxf" color="7" fill="1" visible="no" active="no"/>
<layer number="51" name="tDocu" color="7" fill="1" visible="no" active="no"/>
<layer number="52" name="bDocu" color="7" fill="1" visible="no" active="no"/>
<layer number="53" name="tGND_GNDA" color="7" fill="9" visible="no" active="no"/>
<layer number="54" name="bGND_GNDA" color="1" fill="9" visible="no" active="no"/>
<layer number="56" name="wert" color="7" fill="1" visible="no" active="no"/>
<layer number="57" name="tCAD" color="7" fill="1" visible="no" active="no"/>
<layer number="90" name="Modules" color="5" fill="1" visible="yes" active="yes"/>
<layer number="91" name="Nets" color="2" fill="1" visible="yes" active="yes"/>
<layer number="92" name="Busses" color="1" fill="1" visible="yes" active="yes"/>
<layer number="93" name="Pins" color="2" fill="1" visible="no" active="yes"/>
<layer number="94" name="Symbols" color="4" fill="1" visible="yes" active="yes"/>
<layer number="95" name="Names" color="7" fill="1" visible="yes" active="yes"/>
<layer number="96" name="Values" color="7" fill="1" visible="yes" active="yes"/>
<layer number="97" name="Info" color="7" fill="1" visible="yes" active="yes"/>
<layer number="98" name="Guide" color="6" fill="1" visible="yes" active="yes"/>
<layer number="99" name="SpiceOrder" color="5" fill="1" visible="yes" active="yes"/>
<layer number="100" name="Muster" color="7" fill="1" visible="no" active="no"/>
<layer number="101" name="Patch_Top" color="12" fill="4" visible="yes" active="yes"/>
<layer number="102" name="Vscore" color="7" fill="1" visible="yes" active="yes"/>
<layer number="103" name="tMap" color="7" fill="1" visible="yes" active="yes"/>
<layer number="104" name="Name" color="16" fill="1" visible="yes" active="yes"/>
<layer number="105" name="tPlate" color="7" fill="1" visible="yes" active="yes"/>
<layer number="106" name="bPlate" color="7" fill="1" visible="yes" active="yes"/>
<layer number="107" name="Crop" color="7" fill="1" visible="yes" active="yes"/>
<layer number="108" name="tplace-old" color="10" fill="1" visible="yes" active="yes"/>
<layer number="109" name="ref-old" color="11" fill="1" visible="yes" active="yes"/>
<layer number="110" name="fp0" color="7" fill="1" visible="yes" active="yes"/>
<layer number="111" name="LPC17xx" color="7" fill="1" visible="yes" active="yes"/>
<layer number="112" name="tSilk" color="7" fill="1" visible="yes" active="yes"/>
<layer number="113" name="IDFDebug" color="4" fill="1" visible="yes" active="yes"/>
<layer number="116" name="Patch_BOT" color="9" fill="4" visible="yes" active="yes"/>
<layer number="121" name="_tsilk" color="7" fill="1" visible="yes" active="yes"/>
<layer number="122" name="_bsilk" color="7" fill="1" visible="yes" active="yes"/>
<layer number="123" name="tTestmark" color="7" fill="1" visible="yes" active="yes"/>
<layer number="124" name="bTestmark" color="7" fill="1" visible="yes" active="yes"/>
<layer number="125" name="_tNames" color="7" fill="1" visible="yes" active="yes"/>
<layer number="126" name="_bNames" color="7" fill="1" visible="yes" active="yes"/>
<layer number="127" name="_tValues" color="7" fill="1" visible="yes" active="yes"/>
<layer number="128" name="_bValues" color="7" fill="1" visible="yes" active="yes"/>
<layer number="131" name="tAdjust" color="7" fill="1" visible="yes" active="yes"/>
<layer number="132" name="bAdjust" color="7" fill="1" visible="yes" active="yes"/>
<layer number="144" name="Drill_legend" color="7" fill="1" visible="yes" active="yes"/>
<layer number="150" name="Notes" color="7" fill="1" visible="yes" active="yes"/>
<layer number="151" name="HeatSink" color="7" fill="1" visible="yes" active="yes"/>
<layer number="152" name="_bDocu" color="7" fill="1" visible="yes" active="yes"/>
<layer number="153" name="FabDoc1" color="7" fill="1" visible="yes" active="yes"/>
<layer number="154" name="FabDoc2" color="7" fill="1" visible="yes" active="yes"/>
<layer number="155" name="FabDoc3" color="7" fill="1" visible="yes" active="yes"/>
<layer number="199" name="Contour" color="7" fill="1" visible="yes" active="yes"/>
<layer number="200" name="200bmp" color="1" fill="10" visible="yes" active="yes"/>
<layer number="201" name="201bmp" color="2" fill="10" visible="yes" active="yes"/>
<layer number="202" name="202bmp" color="3" fill="10" visible="yes" active="yes"/>
<layer number="203" name="203bmp" color="4" fill="10" visible="yes" active="yes"/>
<layer number="204" name="204bmp" color="5" fill="10" visible="yes" active="yes"/>
<layer number="205" name="205bmp" color="6" fill="10" visible="yes" active="yes"/>
<layer number="206" name="206bmp" color="7" fill="10" visible="yes" active="yes"/>
<layer number="207" name="207bmp" color="8" fill="10" visible="yes" active="yes"/>
<layer number="208" name="208bmp" color="9" fill="10" visible="yes" active="yes"/>
<layer number="209" name="209bmp" color="7" fill="1" visible="yes" active="yes"/>
<layer number="210" name="210bmp" color="7" fill="1" visible="yes" active="yes"/>
<layer number="211" name="211bmp" color="7" fill="1" visible="yes" active="yes"/>
<layer number="212" name="212bmp" color="7" fill="1" visible="yes" active="yes"/>
<layer number="213" name="213bmp" color="7" fill="1" visible="yes" active="yes"/>
<layer number="214" name="214bmp" color="7" fill="1" visible="yes" active="yes"/>
<layer number="215" name="215bmp" color="7" fill="1" visible="yes" active="yes"/>
<layer number="216" name="216bmp" color="7" fill="1" visible="yes" active="yes"/>
<layer number="217" name="217bmp" color="18" fill="1" visible="no" active="no"/>
<layer number="218" name="218bmp" color="19" fill="1" visible="no" active="no"/>
<layer number="219" name="219bmp" color="20" fill="1" visible="no" active="no"/>
<layer number="220" name="220bmp" color="21" fill="1" visible="no" active="no"/>
<layer number="221" name="221bmp" color="22" fill="1" visible="no" active="no"/>
<layer number="222" name="222bmp" color="23" fill="1" visible="no" active="no"/>
<layer number="223" name="223bmp" color="24" fill="1" visible="no" active="no"/>
<layer number="224" name="224bmp" color="25" fill="1" visible="no" active="no"/>
<layer number="248" name="Housing" color="7" fill="1" visible="yes" active="yes"/>
<layer number="249" name="Edge" color="7" fill="1" visible="yes" active="yes"/>
<layer number="250" name="Descript" color="3" fill="1" visible="no" active="no"/>
<layer number="251" name="SMDround" color="12" fill="11" visible="no" active="no"/>
<layer number="254" name="cooling" color="7" fill="1" visible="yes" active="yes"/>
</layers>
<schematic xreflabel="%F%N/%S.%C%R" xrefpart="/%S.%C%R">
<libraries>
<library name="dubec">
<description>By Janne Savukoski 2014</description>
<packages>
<package name="AVX9258-8P">
<text x="-5" y="5" size="0.6" layer="25" ratio="10">&gt;NAME</text>
<text x="-5" y="4" size="0.6" layer="27">&gt;VALUE</text>
<smd name="4" x="0.5" y="-2.85" dx="0.7" dy="0.7" layer="1" stop="no" thermals="no" cream="no"/>
<smd name="5" x="-0.5" y="-2.85" dx="0.7" dy="0.7" layer="1" stop="no" thermals="no" cream="no"/>
<smd name="6" x="-1.5" y="-2.85" dx="0.7" dy="0.7" layer="1" stop="no" thermals="no" cream="no"/>
<smd name="7" x="-2.5" y="-2.85" dx="0.7" dy="0.7" layer="1" stop="no" thermals="no" cream="no"/>
<smd name="8" x="-3.5" y="-2.85" dx="0.7" dy="0.7" layer="1" stop="no" thermals="no" cream="no"/>
<smd name="3" x="1.5" y="-2.85" dx="0.7" dy="0.7" layer="1" stop="no" thermals="no" cream="no"/>
<smd name="2" x="2.5" y="-2.85" dx="0.7" dy="0.7" layer="1" stop="no" thermals="no" cream="no"/>
<smd name="1" x="3.5" y="-2.85" dx="0.7" dy="0.7" layer="1" stop="no" thermals="no" cream="no"/>
<hole x="-4.675" y="0" drill="1.2"/>
<hole x="4.675" y="0" drill="1.2"/>
<rectangle x1="-3.85" y1="-3.2" x2="-3.15" y2="-2.5" layer="29"/>
<rectangle x1="-2.85" y1="-3.2" x2="-2.15" y2="-2.5" layer="29"/>
<rectangle x1="-1.85" y1="-3.2" x2="-1.15" y2="-2.5" layer="29"/>
<rectangle x1="-0.85" y1="-3.2" x2="-0.15" y2="-2.5" layer="29"/>
<rectangle x1="0.15" y1="-3.2" x2="0.85" y2="-2.5" layer="29"/>
<rectangle x1="1.15" y1="-3.2" x2="1.85" y2="-2.5" layer="29"/>
<rectangle x1="2.15" y1="-3.2" x2="2.85" y2="-2.5" layer="29"/>
<rectangle x1="3.15" y1="-3.2" x2="3.85" y2="-2.5" layer="29"/>
<rectangle x1="-3.75" y1="-3.1" x2="-3.25" y2="-2.6" layer="31"/>
<rectangle x1="-2.75" y1="-3.1" x2="-2.25" y2="-2.6" layer="31"/>
<rectangle x1="-1.75" y1="-3.1" x2="-1.25" y2="-2.6" layer="31"/>
<rectangle x1="-0.75" y1="-3.1" x2="-0.25" y2="-2.6" layer="31"/>
<rectangle x1="0.25" y1="-3.1" x2="0.75" y2="-2.6" layer="31"/>
<rectangle x1="1.25" y1="-3.1" x2="1.75" y2="-2.6" layer="31"/>
<rectangle x1="2.25" y1="-3.1" x2="2.75" y2="-2.6" layer="31"/>
<rectangle x1="3.25" y1="-3.1" x2="3.75" y2="-2.6" layer="31"/>
<rectangle x1="-3.75" y1="2.6" x2="-3.25" y2="3.1" layer="31"/>
<rectangle x1="-3.85" y1="2.5" x2="-3.15" y2="3.2" layer="29"/>
<rectangle x1="-2.75" y1="2.6" x2="-2.25" y2="3.1" layer="31"/>
<rectangle x1="-2.85" y1="2.5" x2="-2.15" y2="3.2" layer="29"/>
<rectangle x1="-1.75" y1="2.6" x2="-1.25" y2="3.1" layer="31"/>
<rectangle x1="-1.85" y1="2.5" x2="-1.15" y2="3.2" layer="29"/>
<rectangle x1="-0.75" y1="2.6" x2="-0.25" y2="3.1" layer="31"/>
<rectangle x1="-0.85" y1="2.5" x2="-0.15" y2="3.2" layer="29"/>
<rectangle x1="0.25" y1="2.6" x2="0.75" y2="3.1" layer="31"/>
<rectangle x1="0.15" y1="2.5" x2="0.85" y2="3.2" layer="29"/>
<rectangle x1="1.25" y1="2.6" x2="1.75" y2="3.1" layer="31"/>
<rectangle x1="1.15" y1="2.5" x2="1.85" y2="3.2" layer="29"/>
<rectangle x1="2.25" y1="2.6" x2="2.75" y2="3.1" layer="31"/>
<rectangle x1="2.15" y1="2.5" x2="2.85" y2="3.2" layer="29"/>
<rectangle x1="3.25" y1="2.6" x2="3.75" y2="3.1" layer="31"/>
<rectangle x1="3.15" y1="2.5" x2="3.85" y2="3.2" layer="29"/>
<wire x1="-5.175" y1="2.75" x2="-4.125" y2="2.75" width="0.2032" layer="21"/>
<wire x1="4.125" y1="2.75" x2="5.175" y2="2.75" width="0.2032" layer="21"/>
<wire x1="-5.175" y1="-2.75" x2="-4.125" y2="-2.75" width="0.2032" layer="21"/>
<wire x1="4.125" y1="-2.75" x2="5.175" y2="-2.75" width="0.2032" layer="21"/>
<wire x1="5.175" y1="-1.05" x2="5.175" y2="-2.75" width="0.2032" layer="21"/>
<wire x1="5.175" y1="2.75" x2="5.175" y2="1.05" width="0.2032" layer="21"/>
<wire x1="-5.175" y1="-2.75" x2="-5.175" y2="-1.05" width="0.2032" layer="21"/>
<wire x1="-5.175" y1="1.05" x2="-5.175" y2="2.75" width="0.2032" layer="21"/>
<text x="0" y="0" size="0.8128" layer="21" font="vector" ratio="15" align="center">00925
80080
04063</text>
</package>
</packages>
<symbols>
<symbol name="AVX9258">
<pin name="6" x="7.62" y="-5.08" visible="pin" length="middle" direction="pas" rot="R180"/>
<pin name="1" x="7.62" y="7.62" visible="pin" length="middle" direction="pas" rot="R180"/>
<pin name="2" x="7.62" y="5.08" visible="pin" length="middle" direction="pas" rot="R180"/>
<pin name="3" x="7.62" y="2.54" visible="pin" length="middle" direction="pas" rot="R180"/>
<pin name="5" x="7.62" y="-2.54" visible="pin" length="middle" direction="pas" rot="R180"/>
<wire x1="-5.08" y1="12.7" x2="5.08" y2="12.7" width="0.508" layer="94"/>
<wire x1="5.08" y1="12.7" x2="5.08" y2="-15.24" width="0.508" layer="94"/>
<wire x1="5.08" y1="-15.24" x2="-5.08" y2="-15.24" width="0.508" layer="94"/>
<wire x1="-5.08" y1="-15.24" x2="-5.08" y2="12.7" width="0.508" layer="94"/>
<text x="-5.08" y="15.24" size="2.54" layer="95">&gt;NAME</text>
<text x="-5.08" y="-17.78" size="2.54" layer="96" align="top-left">&gt;VALUE</text>
<pin name="4" x="7.62" y="0" visible="pin" length="middle" direction="pas" rot="R180"/>
<pin name="7" x="7.62" y="-7.62" visible="pin" length="middle" direction="pas" rot="R180"/>
<pin name="8" x="7.62" y="-10.16" visible="pin" length="middle" direction="pas" rot="R180"/>
</symbol>
</symbols>
<devicesets>
<deviceset name="AVX9258">
<gates>
<gate name="G$1" symbol="AVX9258" x="0" y="0"/>
</gates>
<devices>
<device name="" package="AVX9258-8P">
<connects>
<connect gate="G$1" pin="1" pad="1"/>
<connect gate="G$1" pin="2" pad="2"/>
<connect gate="G$1" pin="3" pad="3"/>
<connect gate="G$1" pin="4" pad="4"/>
<connect gate="G$1" pin="5" pad="5"/>
<connect gate="G$1" pin="6" pad="6"/>
<connect gate="G$1" pin="7" pad="7"/>
<connect gate="G$1" pin="8" pad="8"/>
</connects>
<technologies>
<technology name="">
<attribute name="DIGIKEY_PART_#" value="478-5495-1-ND" constant="no"/>
<attribute name="EURO" value="1.30" constant="no"/>
<attribute name="MANUFACTURER" value="AVX Corporation" constant="no"/>
<attribute name="MFG_PART_#" value="009258008004063" constant="no"/>
</technology>
</technologies>
</device>
</devices>
</deviceset>
</devicesets>
</library>
<library name="SparkFun-Aesthetics">
<description>&lt;h3&gt;SparkFun Electronics' preferred foot prints&lt;/h3&gt;
In this library you'll find non-functional items- supply symbols, logos, notations, frame blocks, etc.&lt;br&gt;&lt;br&gt;
We've spent an enormous amount of time creating and checking these footprints and parts, but it is the end user's responsibility to ensure correctness and suitablity for a given componet or application. If you enjoy using this library, please buy one of our products at www.sparkfun.com.
&lt;br&gt;&lt;br&gt;
&lt;b&gt;Licensing:&lt;/b&gt; Creative Commons ShareAlike 4.0 International - https://creativecommons.org/licenses/by-sa/4.0/ 
&lt;br&gt;&lt;br&gt;
You are welcome to use this library for commercial purposes. For attribution, we ask that when you begin to sell your device using our footprint, you email us with a link to the product being sold. We want bragging rights that we helped (in a very small part) to create your 8th world wonder. We would like the opportunity to feature your device on our homepage.</description>
<packages>
</packages>
<symbols>
<symbol name="DGND">
<wire x1="-1.905" y1="0" x2="1.905" y2="0" width="0.254" layer="94"/>
<text x="-2.54" y="-2.54" size="1.778" layer="96">&gt;VALUE</text>
<pin name="GND" x="0" y="2.54" visible="off" length="short" direction="sup" rot="R270"/>
</symbol>
</symbols>
<devicesets>
<deviceset name="GND" prefix="GND">
<description>&lt;b&gt;SUPPLY SYMBOL&lt;/b&gt;</description>
<gates>
<gate name="1" symbol="DGND" x="0" y="0"/>
</gates>
<devices>
<device name="">
<technologies>
<technology name=""/>
</technologies>
</device>
</devices>
</deviceset>
</devicesets>
</library>
<library name="SparkFun-Connectors">
<description>&lt;h3&gt;SparkFun Electronics' preferred foot prints&lt;/h3&gt;
In this library you'll find connectors and sockets- basically anything that can be plugged into or onto.&lt;br&gt;&lt;br&gt;
We've spent an enormous amount of time creating and checking these footprints and parts, but it is the end user's responsibility to ensure correctness and suitablity for a given componet or application. If you enjoy using this library, please buy one of our products at www.sparkfun.com.
&lt;br&gt;&lt;br&gt;
&lt;b&gt;Licensing:&lt;/b&gt; Creative Commons ShareAlike 4.0 International - https://creativecommons.org/licenses/by-sa/4.0/ 
&lt;br&gt;&lt;br&gt;
You are welcome to use this library for commercial purposes. For attribution, we ask that when you begin to sell your device using our footprint, you email us with a link to the product being sold. We want bragging rights that we helped (in a very small part) to create your 8th world wonder. We would like the opportunity to feature your device on our homepage.</description>
<packages>
<package name="2X3-SHROUDED">
<wire x1="-2.775" y1="3.175" x2="-2.775" y2="1.905" width="0.2032" layer="21"/>
<wire x1="4.5" y1="7.56" x2="4.5" y2="-7.56" width="0.2032" layer="21"/>
<wire x1="-4.5" y1="-7.56" x2="-4.5" y2="-2.2" width="0.2032" layer="21"/>
<wire x1="-4.5" y1="-2.2" x2="-4.5" y2="2.2" width="0.2032" layer="21"/>
<wire x1="-4.5" y1="2.2" x2="-4.5" y2="7.56" width="0.2032" layer="21"/>
<wire x1="-4.5" y1="7.56" x2="4.4" y2="7.56" width="0.2032" layer="21"/>
<wire x1="4.5" y1="-7.56" x2="-4.5" y2="-7.56" width="0.2032" layer="21"/>
<wire x1="-3.4" y1="6.46" x2="3.4" y2="6.46" width="0.2032" layer="51"/>
<wire x1="3.4" y1="6.46" x2="3.4" y2="-6.46" width="0.2032" layer="51"/>
<wire x1="-3.4" y1="-6.46" x2="3.4" y2="-6.46" width="0.2032" layer="51"/>
<wire x1="-4.5" y1="2.2" x2="-3" y2="2.2" width="0.2032" layer="21"/>
<wire x1="-3" y1="2.2" x2="-3" y2="-2.2" width="0.2032" layer="21"/>
<wire x1="-3" y1="-2.2" x2="-4.5" y2="-2.2" width="0.2032" layer="21"/>
<wire x1="-3.4" y1="6.46" x2="-3.4" y2="2.2" width="0.2032" layer="51"/>
<wire x1="-3.4" y1="-6.46" x2="-3.4" y2="-2.2" width="0.2032" layer="51"/>
<pad name="1" x="-1.27" y="2.54" drill="1.016" diameter="1.8796" shape="octagon" rot="R270"/>
<pad name="2" x="1.27" y="2.54" drill="1.016" diameter="1.8796" shape="octagon" rot="R270"/>
<pad name="3" x="-1.27" y="0" drill="1.016" diameter="1.8796" shape="octagon" rot="R270"/>
<pad name="4" x="1.27" y="0" drill="1.016" diameter="1.8796" shape="octagon" rot="R270"/>
<pad name="5" x="-1.27" y="-2.54" drill="1.016" diameter="1.8796" shape="octagon" rot="R270"/>
<pad name="6" x="1.27" y="-2.54" drill="1.016" diameter="1.8796" shape="octagon" rot="R270"/>
<text x="-2.921" y="7.874" size="0.4064" layer="27" font="vector">&gt;VALUE</text>
<text x="-2.921" y="-8.382" size="0.4064" layer="104">&gt;NAME</text>
<rectangle x1="1.016" y1="2.286" x2="1.524" y2="2.794" layer="51"/>
<rectangle x1="-1.524" y1="2.286" x2="-1.016" y2="2.794" layer="51"/>
<rectangle x1="1.016" y1="-0.254" x2="1.524" y2="0.254" layer="51"/>
<rectangle x1="-1.524" y1="-0.254" x2="-1.016" y2="0.254" layer="51"/>
<rectangle x1="1.016" y1="-2.794" x2="1.524" y2="-2.286" layer="51"/>
<rectangle x1="-1.524" y1="-2.794" x2="-1.016" y2="-2.286" layer="51"/>
<rectangle x1="-1.524" y1="-2.794" x2="-1.016" y2="-2.286" layer="51"/>
<rectangle x1="1.016" y1="-2.794" x2="1.524" y2="-2.286" layer="51"/>
</package>
<package name="2X3">
<wire x1="-1.27" y1="-0.635" x2="-0.635" y2="-1.27" width="0.2032" layer="21"/>
<wire x1="0.635" y1="-1.27" x2="1.27" y2="-0.635" width="0.2032" layer="21"/>
<wire x1="1.27" y1="-0.635" x2="1.905" y2="-1.27" width="0.2032" layer="21"/>
<wire x1="3.175" y1="-1.27" x2="3.81" y2="-0.635" width="0.2032" layer="21"/>
<wire x1="3.81" y1="-0.635" x2="4.445" y2="-1.27" width="0.2032" layer="21"/>
<wire x1="5.715" y1="-1.27" x2="6.35" y2="-0.635" width="0.2032" layer="21"/>
<wire x1="-1.27" y1="-0.635" x2="-1.27" y2="3.175" width="0.2032" layer="21"/>
<wire x1="-1.27" y1="3.175" x2="-0.635" y2="3.81" width="0.2032" layer="21"/>
<wire x1="-0.635" y1="3.81" x2="0.635" y2="3.81" width="0.2032" layer="21"/>
<wire x1="0.635" y1="3.81" x2="1.27" y2="3.175" width="0.2032" layer="21"/>
<wire x1="1.27" y1="3.175" x2="1.905" y2="3.81" width="0.2032" layer="21"/>
<wire x1="1.905" y1="3.81" x2="3.175" y2="3.81" width="0.2032" layer="21"/>
<wire x1="3.175" y1="3.81" x2="3.81" y2="3.175" width="0.2032" layer="21"/>
<wire x1="3.81" y1="3.175" x2="4.445" y2="3.81" width="0.2032" layer="21"/>
<wire x1="4.445" y1="3.81" x2="5.715" y2="3.81" width="0.2032" layer="21"/>
<wire x1="5.715" y1="3.81" x2="6.35" y2="3.175" width="0.2032" layer="21"/>
<wire x1="1.27" y1="3.175" x2="1.27" y2="-0.635" width="0.2032" layer="21"/>
<wire x1="3.81" y1="3.175" x2="3.81" y2="-0.635" width="0.2032" layer="21"/>
<wire x1="6.35" y1="3.175" x2="6.35" y2="-0.635" width="0.2032" layer="21"/>
<wire x1="4.445" y1="-1.27" x2="5.715" y2="-1.27" width="0.2032" layer="21"/>
<wire x1="1.905" y1="-1.27" x2="3.175" y2="-1.27" width="0.2032" layer="21"/>
<wire x1="-0.635" y1="-1.27" x2="0.635" y2="-1.27" width="0.2032" layer="21"/>
<wire x1="0.635" y1="-1.605" x2="-0.635" y2="-1.605" width="0.2032" layer="21"/>
<pad name="1" x="0" y="0" drill="1.016" diameter="1.8796" shape="octagon"/>
<pad name="2" x="0" y="2.54" drill="1.016" diameter="1.8796" shape="octagon"/>
<pad name="3" x="2.54" y="0" drill="1.016" diameter="1.8796" shape="octagon"/>
<pad name="4" x="2.54" y="2.54" drill="1.016" diameter="1.8796" shape="octagon"/>
<pad name="5" x="5.08" y="0" drill="1.016" diameter="1.8796" shape="octagon"/>
<pad name="6" x="5.08" y="2.54" drill="1.016" diameter="1.8796" shape="octagon"/>
<text x="-1.27" y="4.445" size="1.27" layer="25" ratio="10">&gt;NAME</text>
<text x="-1.27" y="-3.175" size="1.27" layer="27">&gt;VALUE</text>
<rectangle x1="-0.254" y1="-0.254" x2="0.254" y2="0.254" layer="51"/>
<rectangle x1="-0.254" y1="2.286" x2="0.254" y2="2.794" layer="51"/>
<rectangle x1="2.286" y1="2.286" x2="2.794" y2="2.794" layer="51"/>
<rectangle x1="2.286" y1="-0.254" x2="2.794" y2="0.254" layer="51"/>
<rectangle x1="4.826" y1="2.286" x2="5.334" y2="2.794" layer="51"/>
<rectangle x1="4.826" y1="-0.254" x2="5.334" y2="0.254" layer="51"/>
</package>
<package name="2X3-NS">
<wire x1="-3.81" y1="-1.905" x2="-3.175" y2="-2.54" width="0.2032" layer="51"/>
<wire x1="-1.905" y1="-2.54" x2="-1.27" y2="-1.905" width="0.2032" layer="51"/>
<wire x1="-1.27" y1="-1.905" x2="-0.635" y2="-2.54" width="0.2032" layer="51"/>
<wire x1="0.635" y1="-2.54" x2="1.27" y2="-1.905" width="0.2032" layer="51"/>
<wire x1="1.27" y1="-1.905" x2="1.905" y2="-2.54" width="0.2032" layer="51"/>
<wire x1="3.175" y1="-2.54" x2="3.81" y2="-1.905" width="0.2032" layer="51"/>
<wire x1="-3.81" y1="-1.905" x2="-3.81" y2="1.905" width="0.2032" layer="51"/>
<wire x1="-3.81" y1="1.905" x2="-3.175" y2="2.54" width="0.2032" layer="51"/>
<wire x1="-3.175" y1="2.54" x2="-1.905" y2="2.54" width="0.2032" layer="51"/>
<wire x1="-1.905" y1="2.54" x2="-1.27" y2="1.905" width="0.2032" layer="51"/>
<wire x1="-1.27" y1="1.905" x2="-0.635" y2="2.54" width="0.2032" layer="51"/>
<wire x1="-0.635" y1="2.54" x2="0.635" y2="2.54" width="0.2032" layer="51"/>
<wire x1="0.635" y1="2.54" x2="1.27" y2="1.905" width="0.2032" layer="51"/>
<wire x1="1.27" y1="1.905" x2="1.905" y2="2.54" width="0.2032" layer="51"/>
<wire x1="1.905" y1="2.54" x2="3.175" y2="2.54" width="0.2032" layer="51"/>
<wire x1="3.175" y1="2.54" x2="3.81" y2="1.905" width="0.2032" layer="51"/>
<wire x1="-1.27" y1="1.905" x2="-1.27" y2="-1.905" width="0.2032" layer="51"/>
<wire x1="1.27" y1="1.905" x2="1.27" y2="-1.905" width="0.2032" layer="51"/>
<wire x1="3.81" y1="1.905" x2="3.81" y2="-1.905" width="0.2032" layer="51"/>
<wire x1="1.905" y1="-2.54" x2="3.175" y2="-2.54" width="0.2032" layer="51"/>
<wire x1="-0.635" y1="-2.54" x2="0.635" y2="-2.54" width="0.2032" layer="51"/>
<wire x1="-3.175" y1="-2.54" x2="-1.905" y2="-2.54" width="0.2032" layer="51"/>
<wire x1="-1.905" y1="-2.875" x2="-3.175" y2="-2.875" width="0.2032" layer="51"/>
<pad name="1" x="-2.54" y="-1.27" drill="1.016" diameter="1.8796" shape="square"/>
<pad name="2" x="-2.54" y="1.27" drill="1.016" diameter="1.8796" shape="octagon"/>
<pad name="3" x="0" y="-1.27" drill="1.016" diameter="1.8796" shape="octagon"/>
<pad name="4" x="0" y="1.27" drill="1.016" diameter="1.8796" shape="octagon"/>
<pad name="5" x="2.54" y="-1.27" drill="1.016" diameter="1.8796" shape="octagon"/>
<pad name="6" x="2.54" y="1.27" drill="1.016" diameter="1.8796" shape="octagon"/>
<text x="-3.81" y="3.175" size="1.27" layer="25" ratio="10">&gt;NAME</text>
<text x="-3.81" y="-4.445" size="1.27" layer="27">&gt;VALUE</text>
<rectangle x1="-2.794" y1="-1.524" x2="-2.286" y2="-1.016" layer="51"/>
<rectangle x1="-2.794" y1="1.016" x2="-2.286" y2="1.524" layer="51"/>
<rectangle x1="-0.254" y1="1.016" x2="0.254" y2="1.524" layer="51"/>
<rectangle x1="-0.254" y1="-1.524" x2="0.254" y2="-1.016" layer="51"/>
<rectangle x1="2.286" y1="1.016" x2="2.794" y2="1.524" layer="51"/>
<rectangle x1="2.286" y1="-1.524" x2="2.794" y2="-1.016" layer="51"/>
</package>
<package name="1X02">
<wire x1="-0.635" y1="1.27" x2="0.635" y2="1.27" width="0.2032" layer="21"/>
<wire x1="0.635" y1="1.27" x2="1.27" y2="0.635" width="0.2032" layer="21"/>
<wire x1="1.27" y1="-0.635" x2="0.635" y2="-1.27" width="0.2032" layer="21"/>
<wire x1="1.27" y1="0.635" x2="1.905" y2="1.27" width="0.2032" layer="21"/>
<wire x1="1.905" y1="1.27" x2="3.175" y2="1.27" width="0.2032" layer="21"/>
<wire x1="3.175" y1="1.27" x2="3.81" y2="0.635" width="0.2032" layer="21"/>
<wire x1="3.81" y1="-0.635" x2="3.175" y2="-1.27" width="0.2032" layer="21"/>
<wire x1="3.175" y1="-1.27" x2="1.905" y2="-1.27" width="0.2032" layer="21"/>
<wire x1="1.905" y1="-1.27" x2="1.27" y2="-0.635" width="0.2032" layer="21"/>
<wire x1="-1.27" y1="0.635" x2="-1.27" y2="-0.635" width="0.2032" layer="21"/>
<wire x1="-0.635" y1="1.27" x2="-1.27" y2="0.635" width="0.2032" layer="21"/>
<wire x1="-1.27" y1="-0.635" x2="-0.635" y2="-1.27" width="0.2032" layer="21"/>
<wire x1="0.635" y1="-1.27" x2="-0.635" y2="-1.27" width="0.2032" layer="21"/>
<wire x1="3.81" y1="0.635" x2="3.81" y2="-0.635" width="0.2032" layer="21"/>
<pad name="1" x="0" y="0" drill="1.016" diameter="1.8796" rot="R90"/>
<pad name="2" x="2.54" y="0" drill="1.016" diameter="1.8796" rot="R90"/>
<text x="-1.3462" y="1.8288" size="1.27" layer="25" ratio="10">&gt;NAME</text>
<text x="-1.27" y="-3.175" size="1.27" layer="27">&gt;VALUE</text>
<rectangle x1="2.286" y1="-0.254" x2="2.794" y2="0.254" layer="51"/>
<rectangle x1="-0.254" y1="-0.254" x2="0.254" y2="0.254" layer="51"/>
</package>
<package name="MOLEX-1X2">
<wire x1="-1.27" y1="3.048" x2="-1.27" y2="-2.54" width="0.127" layer="21"/>
<wire x1="3.81" y1="3.048" x2="3.81" y2="-2.54" width="0.127" layer="21"/>
<wire x1="3.81" y1="3.048" x2="-1.27" y2="3.048" width="0.127" layer="21"/>
<wire x1="3.81" y1="-2.54" x2="2.54" y2="-2.54" width="0.127" layer="21"/>
<wire x1="2.54" y1="-2.54" x2="0" y2="-2.54" width="0.127" layer="21"/>
<wire x1="0" y1="-2.54" x2="-1.27" y2="-2.54" width="0.127" layer="21"/>
<wire x1="0" y1="-2.54" x2="0" y2="-1.27" width="0.127" layer="21"/>
<wire x1="0" y1="-1.27" x2="2.54" y2="-1.27" width="0.127" layer="21"/>
<wire x1="2.54" y1="-1.27" x2="2.54" y2="-2.54" width="0.127" layer="21"/>
<pad name="1" x="0" y="0" drill="1.016" diameter="1.8796" shape="square"/>
<pad name="2" x="2.54" y="0" drill="1.016" diameter="1.8796"/>
</package>
<package name="SCREWTERMINAL-3.5MM-2">
<wire x1="-1.75" y1="3.4" x2="5.25" y2="3.4" width="0.2032" layer="21"/>
<wire x1="5.25" y1="3.4" x2="5.25" y2="-2.8" width="0.2032" layer="21"/>
<wire x1="5.25" y1="-2.8" x2="5.25" y2="-3.6" width="0.2032" layer="21"/>
<wire x1="5.25" y1="-3.6" x2="-1.75" y2="-3.6" width="0.2032" layer="21"/>
<wire x1="-1.75" y1="-3.6" x2="-1.75" y2="-2.8" width="0.2032" layer="21"/>
<wire x1="-1.75" y1="-2.8" x2="-1.75" y2="3.4" width="0.2032" layer="21"/>
<wire x1="5.25" y1="-2.8" x2="-1.75" y2="-2.8" width="0.2032" layer="21"/>
<wire x1="-1.75" y1="-1.35" x2="-2.15" y2="-1.35" width="0.2032" layer="51"/>
<wire x1="-2.15" y1="-1.35" x2="-2.15" y2="-2.35" width="0.2032" layer="51"/>
<wire x1="-2.15" y1="-2.35" x2="-1.75" y2="-2.35" width="0.2032" layer="51"/>
<wire x1="5.25" y1="3.15" x2="5.65" y2="3.15" width="0.2032" layer="51"/>
<wire x1="5.65" y1="3.15" x2="5.65" y2="2.15" width="0.2032" layer="51"/>
<wire x1="5.65" y1="2.15" x2="5.25" y2="2.15" width="0.2032" layer="51"/>
<circle x="2" y="3" radius="0.2828" width="0.127" layer="51"/>
<pad name="1" x="0" y="0" drill="1.2" diameter="2.032" shape="square"/>
<pad name="2" x="3.5" y="0" drill="1.2" diameter="2.032"/>
<text x="-1.27" y="2.54" size="0.4064" layer="25">&gt;NAME</text>
<text x="-1.27" y="1.27" size="0.4064" layer="27">&gt;VALUE</text>
</package>
<package name="JST-2-SMD">
<description>2mm SMD side-entry connector. tDocu layer indicates the actual physical plastic housing. +/- indicate SparkFun standard batteries and wiring.</description>
<wire x1="-4" y1="-1" x2="-4" y2="-4.5" width="0.2032" layer="21"/>
<wire x1="-4" y1="-4.5" x2="-3.2" y2="-4.5" width="0.2032" layer="21"/>
<wire x1="-3.2" y1="-4.5" x2="-3.2" y2="-2" width="0.2032" layer="21"/>
<wire x1="-3.2" y1="-2" x2="-2" y2="-2" width="0.2032" layer="21"/>
<wire x1="2" y1="-2" x2="3.2" y2="-2" width="0.2032" layer="21"/>
<wire x1="3.2" y1="-2" x2="3.2" y2="-4.5" width="0.2032" layer="21"/>
<wire x1="3.2" y1="-4.5" x2="4" y2="-4.5" width="0.2032" layer="21"/>
<wire x1="4" y1="-4.5" x2="4" y2="-1" width="0.2032" layer="21"/>
<wire x1="2" y1="3" x2="-2" y2="3" width="0.2032" layer="21"/>
<smd name="1" x="-1" y="-3.7" dx="1" dy="4.6" layer="1"/>
<smd name="2" x="1" y="-3.7" dx="1" dy="4.6" layer="1"/>
<smd name="NC1" x="-3.4" y="1.5" dx="3.4" dy="1.6" layer="1" rot="R90"/>
<smd name="NC2" x="3.4" y="1.5" dx="3.4" dy="1.6" layer="1" rot="R90"/>
<text x="-1.27" y="1.27" size="0.4064" layer="25">&gt;Name</text>
<text x="-1.27" y="0" size="0.4064" layer="27">&gt;Value</text>
<text x="2.159" y="-4.445" size="1.27" layer="51">+</text>
<text x="-2.921" y="-4.445" size="1.27" layer="51">-</text>
</package>
<package name="1X02_BIG">
<wire x1="-1.27" y1="1.27" x2="-1.27" y2="-1.27" width="0.127" layer="21"/>
<wire x1="-1.27" y1="-1.27" x2="5.08" y2="-1.27" width="0.127" layer="21"/>
<wire x1="5.08" y1="-1.27" x2="5.08" y2="1.27" width="0.127" layer="21"/>
<wire x1="5.08" y1="1.27" x2="-1.27" y2="1.27" width="0.127" layer="21"/>
<pad name="P$1" x="0" y="0" drill="1.0668"/>
<pad name="P$2" x="3.81" y="0" drill="1.0668"/>
</package>
<package name="JST-2-SMD-VERT">
<wire x1="-4.1" y1="2.97" x2="4.2" y2="2.97" width="0.2032" layer="51"/>
<wire x1="4.2" y1="2.97" x2="4.2" y2="-2.13" width="0.2032" layer="51"/>
<wire x1="4.2" y1="-2.13" x2="-4.1" y2="-2.13" width="0.2032" layer="51"/>
<wire x1="-4.1" y1="-2.13" x2="-4.1" y2="2.97" width="0.2032" layer="51"/>
<wire x1="-4.1" y1="3" x2="4.2" y2="3" width="0.2032" layer="21"/>
<wire x1="4.2" y1="3" x2="4.2" y2="2.3" width="0.2032" layer="21"/>
<wire x1="-4.1" y1="3" x2="-4.1" y2="2.3" width="0.2032" layer="21"/>
<wire x1="2" y1="-2.1" x2="4.2" y2="-2.1" width="0.2032" layer="21"/>
<wire x1="4.2" y1="-2.1" x2="4.2" y2="-1.7" width="0.2032" layer="21"/>
<wire x1="-2" y1="-2.1" x2="-4.1" y2="-2.1" width="0.2032" layer="21"/>
<wire x1="-4.1" y1="-2.1" x2="-4.1" y2="-1.8" width="0.2032" layer="21"/>
<smd name="P$1" x="-3.4" y="0.27" dx="3" dy="1.6" layer="1" rot="R90"/>
<smd name="P$2" x="3.4" y="0.27" dx="3" dy="1.6" layer="1" rot="R90"/>
<smd name="VCC" x="-1" y="-2" dx="1" dy="5.5" layer="1"/>
<smd name="GND" x="1" y="-2" dx="1" dy="5.5" layer="1"/>
<text x="2.54" y="-5.08" size="1.27" layer="25">&gt;Name</text>
<text x="2.24" y="3.48" size="1.27" layer="27">&gt;Value</text>
</package>
<package name="R_SW_TH">
<wire x1="-1.651" y1="19.2532" x2="-1.651" y2="-1.3716" width="0.2032" layer="21"/>
<wire x1="-1.651" y1="-1.3716" x2="-1.651" y2="-2.2352" width="0.2032" layer="21"/>
<wire x1="-1.651" y1="19.2532" x2="13.589" y2="19.2532" width="0.2032" layer="21"/>
<wire x1="13.589" y1="19.2532" x2="13.589" y2="-2.2352" width="0.2032" layer="21"/>
<wire x1="13.589" y1="-2.2352" x2="-1.651" y2="-2.2352" width="0.2032" layer="21"/>
<pad name="P$1" x="0" y="0" drill="1.6002"/>
<pad name="P$2" x="0" y="16.9926" drill="1.6002"/>
<pad name="P$3" x="12.0904" y="15.494" drill="1.6002"/>
<pad name="P$4" x="12.0904" y="8.4582" drill="1.6002"/>
</package>
<package name="SCREWTERMINAL-5MM-2">
<wire x1="-3.1" y1="4.2" x2="8.1" y2="4.2" width="0.2032" layer="21"/>
<wire x1="8.1" y1="4.2" x2="8.1" y2="-2.3" width="0.2032" layer="21"/>
<wire x1="8.1" y1="-2.3" x2="8.1" y2="-3.3" width="0.2032" layer="21"/>
<wire x1="8.1" y1="-3.3" x2="-3.1" y2="-3.3" width="0.2032" layer="21"/>
<wire x1="-3.1" y1="-3.3" x2="-3.1" y2="-2.3" width="0.2032" layer="21"/>
<wire x1="-3.1" y1="-2.3" x2="-3.1" y2="4.2" width="0.2032" layer="21"/>
<wire x1="8.1" y1="-2.3" x2="-3.1" y2="-2.3" width="0.2032" layer="21"/>
<wire x1="-3.1" y1="-1.35" x2="-3.7" y2="-1.35" width="0.2032" layer="51"/>
<wire x1="-3.7" y1="-1.35" x2="-3.7" y2="-2.35" width="0.2032" layer="51"/>
<wire x1="-3.7" y1="-2.35" x2="-3.1" y2="-2.35" width="0.2032" layer="51"/>
<wire x1="8.1" y1="4" x2="8.7" y2="4" width="0.2032" layer="51"/>
<wire x1="8.7" y1="4" x2="8.7" y2="3" width="0.2032" layer="51"/>
<wire x1="8.7" y1="3" x2="8.1" y2="3" width="0.2032" layer="51"/>
<circle x="2.5" y="3.7" radius="0.2828" width="0.127" layer="51"/>
<pad name="1" x="0" y="0" drill="1.3" diameter="2.032" shape="square"/>
<pad name="2" x="5" y="0" drill="1.3" diameter="2.032"/>
<text x="-1.27" y="2.54" size="0.4064" layer="25">&gt;NAME</text>
<text x="-1.27" y="1.27" size="0.4064" layer="27">&gt;VALUE</text>
</package>
<package name="1X02_LOCK">
<wire x1="-0.635" y1="1.27" x2="0.635" y2="1.27" width="0.2032" layer="21"/>
<wire x1="0.635" y1="1.27" x2="1.27" y2="0.635" width="0.2032" layer="21"/>
<wire x1="1.27" y1="-0.635" x2="0.635" y2="-1.27" width="0.2032" layer="21"/>
<wire x1="1.27" y1="0.635" x2="1.905" y2="1.27" width="0.2032" layer="21"/>
<wire x1="1.905" y1="1.27" x2="3.175" y2="1.27" width="0.2032" layer="21"/>
<wire x1="3.175" y1="1.27" x2="3.81" y2="0.635" width="0.2032" layer="21"/>
<wire x1="3.81" y1="-0.635" x2="3.175" y2="-1.27" width="0.2032" layer="21"/>
<wire x1="3.175" y1="-1.27" x2="1.905" y2="-1.27" width="0.2032" layer="21"/>
<wire x1="1.905" y1="-1.27" x2="1.27" y2="-0.635" width="0.2032" layer="21"/>
<wire x1="-1.27" y1="0.635" x2="-1.27" y2="-0.635" width="0.2032" layer="21"/>
<wire x1="-0.635" y1="1.27" x2="-1.27" y2="0.635" width="0.2032" layer="21"/>
<wire x1="-1.27" y1="-0.635" x2="-0.635" y2="-1.27" width="0.2032" layer="21"/>
<wire x1="0.635" y1="-1.27" x2="-0.635" y2="-1.27" width="0.2032" layer="21"/>
<wire x1="3.81" y1="0.635" x2="3.81" y2="-0.635" width="0.2032" layer="21"/>
<pad name="1" x="-0.1778" y="0" drill="1.016" diameter="1.8796" rot="R90"/>
<pad name="2" x="2.7178" y="0" drill="1.016" diameter="1.8796" rot="R90"/>
<text x="-1.3462" y="1.8288" size="1.27" layer="25" ratio="10">&gt;NAME</text>
<text x="-1.27" y="-3.175" size="1.27" layer="27">&gt;VALUE</text>
<rectangle x1="-0.2921" y1="-0.2921" x2="0.2921" y2="0.2921" layer="51"/>
<rectangle x1="2.2479" y1="-0.2921" x2="2.8321" y2="0.2921" layer="51"/>
</package>
<package name="MOLEX-1X2_LOCK">
<wire x1="-1.27" y1="3.048" x2="-1.27" y2="-2.54" width="0.127" layer="21"/>
<wire x1="3.81" y1="3.048" x2="3.81" y2="-2.54" width="0.127" layer="21"/>
<wire x1="3.81" y1="3.048" x2="-1.27" y2="3.048" width="0.127" layer="21"/>
<wire x1="3.81" y1="-2.54" x2="2.54" y2="-2.54" width="0.127" layer="21"/>
<wire x1="2.54" y1="-2.54" x2="0" y2="-2.54" width="0.127" layer="21"/>
<wire x1="0" y1="-2.54" x2="-1.27" y2="-2.54" width="0.127" layer="21"/>
<wire x1="0" y1="-2.54" x2="0" y2="-1.27" width="0.127" layer="21"/>
<wire x1="0" y1="-1.27" x2="2.54" y2="-1.27" width="0.127" layer="21"/>
<wire x1="2.54" y1="-1.27" x2="2.54" y2="-2.54" width="0.127" layer="21"/>
<pad name="1" x="-0.127" y="0" drill="1.016" diameter="1.8796" shape="square"/>
<pad name="2" x="2.667" y="0" drill="1.016" diameter="1.8796"/>
<rectangle x1="-0.2921" y1="-0.2921" x2="0.2921" y2="0.2921" layer="51"/>
<rectangle x1="2.2479" y1="-0.2921" x2="2.8321" y2="0.2921" layer="51"/>
</package>
<package name="1X02_LOCK_LONGPADS">
<description>This footprint was designed to help hold the alignment of a through-hole component (i.e.  6-pin header) while soldering it into place.  
You may notice that each hole has been shifted either up or down by 0.005 of an inch from it's more standard position (which is a perfectly straight line).  
This slight alteration caused the pins (the squares in the middle) to touch the edges of the holes.  Because they are alternating, it causes a "brace" 
to hold the component in place.  0.005 has proven to be the perfect amount of "off-center" position when using our standard breakaway headers.
Although looks a little odd when you look at the bare footprint, once you have a header in there, the alteration is very hard to notice.  Also,
if you push a header all the way into place, it is covered up entirely on the bottom side.  This idea of altering the position of holes to aid alignment 
will be further integrated into the Sparkfun Library for other footprints.  It can help hold any component with 3 or more connection pins.</description>
<wire x1="1.651" y1="0" x2="0.889" y2="0" width="0.2032" layer="21"/>
<wire x1="-1.27" y1="0" x2="-1.016" y2="0" width="0.2032" layer="21"/>
<wire x1="-1.27" y1="0" x2="-1.27" y2="0.9906" width="0.2032" layer="21"/>
<wire x1="-1.27" y1="0.9906" x2="-0.9906" y2="1.27" width="0.2032" layer="21"/>
<wire x1="-1.27" y1="0" x2="-1.27" y2="-0.9906" width="0.2032" layer="21"/>
<wire x1="-1.27" y1="-0.9906" x2="-0.9906" y2="-1.27" width="0.2032" layer="21"/>
<wire x1="3.81" y1="0" x2="3.556" y2="0" width="0.2032" layer="21"/>
<wire x1="3.81" y1="0" x2="3.81" y2="-0.9906" width="0.2032" layer="21"/>
<wire x1="3.81" y1="-0.9906" x2="3.5306" y2="-1.27" width="0.2032" layer="21"/>
<wire x1="3.81" y1="0" x2="3.81" y2="0.9906" width="0.2032" layer="21"/>
<wire x1="3.81" y1="0.9906" x2="3.5306" y2="1.27" width="0.2032" layer="21"/>
<pad name="1" x="-0.127" y="0" drill="1.016" shape="long" rot="R90"/>
<pad name="2" x="2.667" y="0" drill="1.016" shape="long" rot="R90"/>
<text x="-1.27" y="1.778" size="1.27" layer="25" font="vector">&gt;NAME</text>
<text x="-1.27" y="-3.302" size="1.27" layer="27" font="vector">&gt;VALUE</text>
<rectangle x1="-0.2921" y1="-0.2921" x2="0.2921" y2="0.2921" layer="51"/>
<rectangle x1="2.2479" y1="-0.2921" x2="2.8321" y2="0.2921" layer="51"/>
</package>
<package name="SCREWTERMINAL-3.5MM-2_LOCK">
<wire x1="-1.75" y1="3.4" x2="5.25" y2="3.4" width="0.2032" layer="21"/>
<wire x1="5.25" y1="3.4" x2="5.25" y2="-2.8" width="0.2032" layer="21"/>
<wire x1="5.25" y1="-2.8" x2="5.25" y2="-3.6" width="0.2032" layer="21"/>
<wire x1="5.25" y1="-3.6" x2="-1.75" y2="-3.6" width="0.2032" layer="21"/>
<wire x1="-1.75" y1="-3.6" x2="-1.75" y2="-2.8" width="0.2032" layer="21"/>
<wire x1="-1.75" y1="-2.8" x2="-1.75" y2="3.4" width="0.2032" layer="21"/>
<wire x1="5.25" y1="-2.8" x2="-1.75" y2="-2.8" width="0.2032" layer="21"/>
<wire x1="-1.75" y1="-1.35" x2="-2.15" y2="-1.35" width="0.2032" layer="51"/>
<wire x1="-2.15" y1="-1.35" x2="-2.15" y2="-2.35" width="0.2032" layer="51"/>
<wire x1="-2.15" y1="-2.35" x2="-1.75" y2="-2.35" width="0.2032" layer="51"/>
<wire x1="5.25" y1="3.15" x2="5.65" y2="3.15" width="0.2032" layer="51"/>
<wire x1="5.65" y1="3.15" x2="5.65" y2="2.15" width="0.2032" layer="51"/>
<wire x1="5.65" y1="2.15" x2="5.25" y2="2.15" width="0.2032" layer="51"/>
<circle x="2" y="3" radius="0.2828" width="0.127" layer="51"/>
<circle x="0" y="0" radius="0.4318" width="0.0254" layer="51"/>
<circle x="3.5" y="0" radius="0.4318" width="0.0254" layer="51"/>
<pad name="1" x="-0.1778" y="0" drill="1.2" diameter="2.032" shape="square"/>
<pad name="2" x="3.6778" y="0" drill="1.2" diameter="2.032"/>
<text x="-1.27" y="2.54" size="0.4064" layer="25">&gt;NAME</text>
<text x="-1.27" y="1.27" size="0.4064" layer="27">&gt;VALUE</text>
</package>
<package name="1X02_LONGPADS">
<pad name="1" x="0" y="0" drill="1.1176" diameter="1.8796" shape="long" rot="R90"/>
<pad name="2" x="2.54" y="0" drill="1.1176" diameter="1.8796" shape="long" rot="R90"/>
</package>
<package name="1X02_NO_SILK">
<pad name="1" x="0" y="0" drill="1.016" diameter="1.8796" rot="R90"/>
<pad name="2" x="2.54" y="0" drill="1.016" diameter="1.8796" rot="R90"/>
<text x="-1.3462" y="1.8288" size="1.27" layer="25" ratio="10">&gt;NAME</text>
<text x="-1.27" y="-3.175" size="1.27" layer="27">&gt;VALUE</text>
<rectangle x1="2.286" y1="-0.254" x2="2.794" y2="0.254" layer="51"/>
<rectangle x1="-0.254" y1="-0.254" x2="0.254" y2="0.254" layer="51"/>
</package>
<package name="JST-2-PTH">
<pad name="1" x="-1" y="0" drill="0.7" diameter="1.6"/>
<pad name="2" x="1" y="0" drill="0.7" diameter="1.6"/>
<text x="-1.27" y="5.27" size="0.4064" layer="25">&gt;Name</text>
<text x="-1.27" y="4" size="0.4064" layer="27">&gt;Value</text>
<text x="0.6" y="0.7" size="1.27" layer="51">+</text>
<text x="-1.4" y="0.7" size="1.27" layer="51">-</text>
<wire x1="-2.95" y1="-1.6" x2="-2.95" y2="6" width="0.2032" layer="21"/>
<wire x1="-2.95" y1="6" x2="2.95" y2="6" width="0.2032" layer="21"/>
<wire x1="2.95" y1="6" x2="2.95" y2="-1.6" width="0.2032" layer="21"/>
<wire x1="-2.95" y1="-1.6" x2="-2.3" y2="-1.6" width="0.2032" layer="21"/>
<wire x1="2.95" y1="-1.6" x2="2.3" y2="-1.6" width="0.2032" layer="21"/>
<wire x1="-2.3" y1="-1.6" x2="-2.3" y2="0" width="0.2032" layer="21"/>
<wire x1="2.3" y1="-1.6" x2="2.3" y2="0" width="0.2032" layer="21"/>
</package>
<package name="1X02_XTRA_BIG">
<wire x1="-5.08" y1="2.54" x2="-5.08" y2="-2.54" width="0.127" layer="21"/>
<wire x1="-5.08" y1="-2.54" x2="5.08" y2="-2.54" width="0.127" layer="21"/>
<wire x1="5.08" y1="-2.54" x2="5.08" y2="2.54" width="0.127" layer="21"/>
<wire x1="5.08" y1="2.54" x2="-5.08" y2="2.54" width="0.127" layer="21"/>
<pad name="1" x="-2.54" y="0" drill="2.0574" diameter="3.556"/>
<pad name="2" x="2.54" y="0" drill="2.0574" diameter="3.556"/>
</package>
<package name="1X02_PP_HOLES_ONLY">
<circle x="0" y="0" radius="0.635" width="0.127" layer="51"/>
<circle x="2.54" y="0" radius="0.635" width="0.127" layer="51"/>
<pad name="1" x="0" y="0" drill="0.889" diameter="0.8128" rot="R90"/>
<pad name="2" x="2.54" y="0" drill="0.889" diameter="0.8128" rot="R90"/>
<hole x="0" y="0" drill="1.4732"/>
<hole x="2.54" y="0" drill="1.4732"/>
</package>
<package name="SCREWTERMINAL-3.5MM-2-NS">
<wire x1="-1.75" y1="3.4" x2="5.25" y2="3.4" width="0.2032" layer="51"/>
<wire x1="5.25" y1="3.4" x2="5.25" y2="-2.8" width="0.2032" layer="51"/>
<wire x1="5.25" y1="-2.8" x2="5.25" y2="-3.6" width="0.2032" layer="51"/>
<wire x1="5.25" y1="-3.6" x2="-1.75" y2="-3.6" width="0.2032" layer="51"/>
<wire x1="-1.75" y1="-3.6" x2="-1.75" y2="-2.8" width="0.2032" layer="51"/>
<wire x1="-1.75" y1="-2.8" x2="-1.75" y2="3.4" width="0.2032" layer="51"/>
<wire x1="5.25" y1="-2.8" x2="-1.75" y2="-2.8" width="0.2032" layer="51"/>
<wire x1="-1.75" y1="-1.35" x2="-2.15" y2="-1.35" width="0.2032" layer="51"/>
<wire x1="-2.15" y1="-1.35" x2="-2.15" y2="-2.35" width="0.2032" layer="51"/>
<wire x1="-2.15" y1="-2.35" x2="-1.75" y2="-2.35" width="0.2032" layer="51"/>
<wire x1="5.25" y1="3.15" x2="5.65" y2="3.15" width="0.2032" layer="51"/>
<wire x1="5.65" y1="3.15" x2="5.65" y2="2.15" width="0.2032" layer="51"/>
<wire x1="5.65" y1="2.15" x2="5.25" y2="2.15" width="0.2032" layer="51"/>
<circle x="2" y="3" radius="0.2828" width="0.127" layer="51"/>
<pad name="1" x="0" y="0" drill="1.2" diameter="2.032" shape="square"/>
<pad name="2" x="3.5" y="0" drill="1.2" diameter="2.032"/>
<text x="-1.27" y="2.54" size="0.4064" layer="25">&gt;NAME</text>
<text x="-1.27" y="1.27" size="0.4064" layer="27">&gt;VALUE</text>
</package>
<package name="JST-2-PTH-NS">
<wire x1="-2" y1="0" x2="-2" y2="-1.8" width="0.2032" layer="51"/>
<wire x1="-2" y1="-1.8" x2="-3" y2="-1.8" width="0.2032" layer="51"/>
<wire x1="-3" y1="-1.8" x2="-3" y2="6" width="0.2032" layer="51"/>
<wire x1="-3" y1="6" x2="3" y2="6" width="0.2032" layer="51"/>
<wire x1="3" y1="6" x2="3" y2="-1.8" width="0.2032" layer="51"/>
<wire x1="3" y1="-1.8" x2="2" y2="-1.8" width="0.2032" layer="51"/>
<wire x1="2" y1="-1.8" x2="2" y2="0" width="0.2032" layer="51"/>
<pad name="1" x="-1" y="0" drill="0.7" diameter="1.6"/>
<pad name="2" x="1" y="0" drill="0.7" diameter="1.6"/>
<text x="-1.27" y="5.27" size="0.4064" layer="25">&gt;Name</text>
<text x="-1.27" y="4" size="0.4064" layer="27">&gt;Value</text>
<text x="0.6" y="0.7" size="1.27" layer="51">+</text>
<text x="-1.4" y="0.7" size="1.27" layer="51">-</text>
</package>
<package name="JST-2-PTH-KIT">
<description>&lt;H3&gt;JST-2-PTH-KIT&lt;/h3&gt;
2-Pin JST, through-hole connector&lt;br&gt;
&lt;br&gt;
&lt;b&gt;Warning:&lt;/b&gt; This is the KIT version of this package. This package has a smaller diameter top stop mask, which doesn't cover the diameter of the pad. This means only the bottom side of the pads' copper will be exposed. You'll only be able to solder to the bottom side.</description>
<wire x1="-2" y1="0" x2="-2" y2="-1.8" width="0.2032" layer="51"/>
<wire x1="-2" y1="-1.8" x2="-3" y2="-1.8" width="0.2032" layer="51"/>
<wire x1="-3" y1="-1.8" x2="-3" y2="6" width="0.2032" layer="51"/>
<wire x1="-3" y1="6" x2="3" y2="6" width="0.2032" layer="51"/>
<wire x1="3" y1="6" x2="3" y2="-1.8" width="0.2032" layer="51"/>
<wire x1="3" y1="-1.8" x2="2" y2="-1.8" width="0.2032" layer="51"/>
<wire x1="2" y1="-1.8" x2="2" y2="0" width="0.2032" layer="51"/>
<pad name="1" x="-1" y="0" drill="0.7" diameter="1.4478" stop="no"/>
<pad name="2" x="1" y="0" drill="0.7" diameter="1.4478" stop="no"/>
<text x="-1.27" y="5.27" size="0.4064" layer="25">&gt;Name</text>
<text x="-1.27" y="4" size="0.4064" layer="27">&gt;Value</text>
<text x="0.6" y="0.7" size="1.27" layer="51">+</text>
<text x="-1.4" y="0.7" size="1.27" layer="51">-</text>
<polygon width="0.127" layer="30">
<vertex x="-0.9975" y="-0.6604" curve="-90.025935"/>
<vertex x="-1.6604" y="0" curve="-90.017354"/>
<vertex x="-1" y="0.6604" curve="-90"/>
<vertex x="-0.3396" y="0" curve="-90.078137"/>
</polygon>
<polygon width="0.127" layer="29">
<vertex x="-1" y="-0.2865" curve="-90.08005"/>
<vertex x="-1.2865" y="0" curve="-90.040011"/>
<vertex x="-1" y="0.2865" curve="-90"/>
<vertex x="-0.7135" y="0" curve="-90"/>
</polygon>
<polygon width="0.127" layer="30">
<vertex x="1.0025" y="-0.6604" curve="-90.025935"/>
<vertex x="0.3396" y="0" curve="-90.017354"/>
<vertex x="1" y="0.6604" curve="-90"/>
<vertex x="1.6604" y="0" curve="-90.078137"/>
</polygon>
<polygon width="0.127" layer="29">
<vertex x="1" y="-0.2865" curve="-90.08005"/>
<vertex x="0.7135" y="0" curve="-90.040011"/>
<vertex x="1" y="0.2865" curve="-90"/>
<vertex x="1.2865" y="0" curve="-90"/>
</polygon>
</package>
<package name="SPRINGTERMINAL-2.54MM-2">
<wire x1="-4.2" y1="7.88" x2="-4.2" y2="-2.8" width="0.254" layer="21"/>
<wire x1="-4.2" y1="-2.8" x2="-4.2" y2="-4.72" width="0.254" layer="51"/>
<wire x1="-4.2" y1="-4.72" x2="3.44" y2="-4.72" width="0.254" layer="51"/>
<wire x1="3.44" y1="-4.72" x2="3.44" y2="-2.8" width="0.254" layer="51"/>
<wire x1="3.44" y1="7.88" x2="-4.2" y2="7.88" width="0.254" layer="21"/>
<wire x1="0" y1="0" x2="0" y2="5.08" width="0.254" layer="1"/>
<wire x1="0" y1="0" x2="0" y2="5.08" width="0.254" layer="16"/>
<wire x1="2.54" y1="0" x2="2.54" y2="5.08" width="0.254" layer="16"/>
<wire x1="2.54" y1="0" x2="2.54" y2="5.08" width="0.254" layer="1"/>
<wire x1="-4.2" y1="-2.8" x2="3.44" y2="-2.8" width="0.254" layer="21"/>
<wire x1="3.44" y1="4" x2="3.44" y2="1" width="0.254" layer="21"/>
<wire x1="3.44" y1="7.88" x2="3.44" y2="6" width="0.254" layer="21"/>
<wire x1="3.44" y1="-0.9" x2="3.44" y2="-2.8" width="0.254" layer="21"/>
<pad name="1" x="0" y="0" drill="1.1" diameter="1.9"/>
<pad name="P$2" x="0" y="5.08" drill="1.1" diameter="1.9"/>
<pad name="P$3" x="2.54" y="5.08" drill="1.1" diameter="1.9"/>
<pad name="2" x="2.54" y="0" drill="1.1" diameter="1.9"/>
</package>
<package name="1X02_2.54_SCREWTERM">
<pad name="P2" x="0" y="0" drill="1.016" shape="square"/>
<pad name="P1" x="2.54" y="0" drill="1.016" shape="square"/>
<wire x1="-1.5" y1="3.25" x2="4" y2="3.25" width="0.127" layer="21"/>
<wire x1="4" y1="3.25" x2="4" y2="2.5" width="0.127" layer="21"/>
<wire x1="4" y1="2.5" x2="4" y2="-3.25" width="0.127" layer="21"/>
<wire x1="4" y1="-3.25" x2="-1.5" y2="-3.25" width="0.127" layer="21"/>
<wire x1="-1.5" y1="-3.25" x2="-1.5" y2="2.5" width="0.127" layer="21"/>
<wire x1="-1.5" y1="2.5" x2="-1.5" y2="3.25" width="0.127" layer="21"/>
<wire x1="-1.5" y1="2.5" x2="4" y2="2.5" width="0.127" layer="21"/>
</package>
<package name="JST-2-PTH-VERT">
<wire x1="-2.95" y1="-2.25" x2="-2.95" y2="2.25" width="0.2032" layer="21"/>
<wire x1="-2.95" y1="2.25" x2="2.95" y2="2.25" width="0.2032" layer="21"/>
<wire x1="2.95" y1="2.25" x2="2.95" y2="-2.25" width="0.2032" layer="21"/>
<wire x1="2.95" y1="-2.25" x2="1" y2="-2.25" width="0.2032" layer="21"/>
<wire x1="-1" y1="-2.25" x2="-2.95" y2="-2.25" width="0.2032" layer="21"/>
<wire x1="-1" y1="-1.75" x2="1" y2="-1.75" width="0.2032" layer="21"/>
<wire x1="1" y1="-1.75" x2="1" y2="-2.25" width="0.2032" layer="21"/>
<wire x1="-1" y1="-1.75" x2="-1" y2="-2.25" width="0.2032" layer="21"/>
<pad name="1" x="-1" y="-0.55" drill="0.7" diameter="1.6"/>
<pad name="2" x="1" y="-0.55" drill="0.7" diameter="1.6"/>
<text x="-1.984" y="3" size="0.4064" layer="25">&gt;Name</text>
<text x="2.016" y="3" size="0.4064" layer="27">&gt;Value</text>
<text x="0.616" y="0.75" size="1.27" layer="51">+</text>
<text x="-1.384" y="0.75" size="1.27" layer="51">-</text>
</package>
<package name="2X3_SMT_POSTS">
<description>4UCON 15881&lt;br&gt;
Male .1" spaced SMT&lt;br&gt;
Keying posts into board</description>
<hole x="-1.27" y="0" drill="1.8"/>
<hole x="1.27" y="0" drill="1.8"/>
<smd name="4" x="0" y="2.54" dx="3.17" dy="1" layer="1" rot="R90"/>
<smd name="3" x="0" y="-2.54" dx="3.17" dy="1" layer="1" rot="R90"/>
<smd name="5" x="2.54" y="-2.54" dx="3.17" dy="1" layer="1" rot="R90"/>
<smd name="6" x="2.54" y="2.54" dx="3.17" dy="1" layer="1" rot="R90"/>
<smd name="2" x="-2.54" y="2.54" dx="3.17" dy="1" layer="1" rot="R90"/>
<smd name="1" x="-2.54" y="-2.54" dx="3.17" dy="1" layer="1" rot="R90"/>
<text x="0" y="-5.08" size="0.6096" layer="27">&gt;VALUE</text>
<text x="0" y="-6.35" size="0.6096" layer="25">&gt;NAME</text>
<wire x1="-1.778" y1="2.54" x2="-0.762" y2="2.54" width="0.127" layer="21"/>
<wire x1="0.762" y1="2.54" x2="1.778" y2="2.54" width="0.127" layer="21"/>
<wire x1="-1.778" y1="-2.54" x2="-0.889" y2="-2.54" width="0.127" layer="21"/>
<wire x1="0.762" y1="-2.54" x2="1.778" y2="-2.54" width="0.127" layer="21"/>
<wire x1="-3.175" y1="2.54" x2="-3.81" y2="2.54" width="0.127" layer="21"/>
<wire x1="-3.81" y1="2.54" x2="-3.81" y2="-2.54" width="0.127" layer="21"/>
<wire x1="-3.81" y1="-2.54" x2="-3.175" y2="-2.54" width="0.127" layer="21"/>
<wire x1="3.175" y1="2.54" x2="3.81" y2="2.54" width="0.127" layer="21"/>
<wire x1="3.81" y1="2.54" x2="3.81" y2="-2.54" width="0.127" layer="21"/>
<wire x1="3.81" y1="-2.54" x2="3.175" y2="-2.54" width="0.127" layer="21"/>
<wire x1="-3.429" y1="-4.064" x2="-3.429" y2="-2.794" width="0.127" layer="21"/>
</package>
<package name="2X3_POGO">
<pad name="P$1" x="0" y="0" drill="1.2" diameter="1.8288" shape="octagon"/>
<pad name="P$3" x="2.54" y="0" drill="1.2" diameter="1.8288" shape="octagon"/>
<pad name="P$5" x="5.08" y="0" drill="1.2" diameter="1.8288" shape="octagon"/>
<pad name="P$6" x="5.08" y="2.54" drill="1.2" diameter="1.8288" shape="octagon"/>
<pad name="P$4" x="2.54" y="2.54" drill="1.2" diameter="1.8288" shape="octagon"/>
<pad name="P$2" x="0" y="2.54" drill="1.2" diameter="1.8288" shape="octagon"/>
<wire x1="-0.635" y1="1.27" x2="-1.27" y2="1.905" width="0.127" layer="21"/>
<wire x1="-1.27" y1="1.905" x2="-1.27" y2="3.175" width="0.127" layer="21"/>
<wire x1="-1.27" y1="3.175" x2="-0.635" y2="3.81" width="0.127" layer="21"/>
<wire x1="-0.635" y1="3.81" x2="0.635" y2="3.81" width="0.127" layer="21"/>
<wire x1="0.635" y1="3.81" x2="1.27" y2="3.175" width="0.127" layer="21"/>
<wire x1="1.27" y1="3.175" x2="1.905" y2="3.81" width="0.127" layer="21"/>
<wire x1="1.905" y1="3.81" x2="3.175" y2="3.81" width="0.127" layer="21"/>
<wire x1="3.175" y1="3.81" x2="3.81" y2="3.175" width="0.127" layer="21"/>
<wire x1="3.81" y1="3.175" x2="4.445" y2="3.81" width="0.127" layer="21"/>
<wire x1="4.445" y1="3.81" x2="5.715" y2="3.81" width="0.127" layer="21"/>
<wire x1="5.715" y1="3.81" x2="6.35" y2="3.175" width="0.127" layer="21"/>
<wire x1="6.35" y1="3.175" x2="6.35" y2="1.905" width="0.127" layer="21"/>
<wire x1="6.35" y1="1.905" x2="5.715" y2="1.27" width="0.127" layer="21"/>
<wire x1="5.715" y1="1.27" x2="6.35" y2="0.635" width="0.127" layer="21"/>
<wire x1="6.35" y1="0.635" x2="6.35" y2="-0.635" width="0.127" layer="21"/>
<wire x1="6.35" y1="-0.635" x2="5.715" y2="-1.27" width="0.127" layer="21"/>
<wire x1="5.715" y1="-1.27" x2="4.445" y2="-1.27" width="0.127" layer="21"/>
<wire x1="4.445" y1="-1.27" x2="3.81" y2="-0.635" width="0.127" layer="21"/>
<wire x1="3.81" y1="-0.635" x2="3.175" y2="-1.27" width="0.127" layer="21"/>
<wire x1="3.175" y1="-1.27" x2="1.905" y2="-1.27" width="0.127" layer="21"/>
<wire x1="1.905" y1="-1.27" x2="1.27" y2="-0.635" width="0.127" layer="21"/>
<wire x1="1.27" y1="-0.635" x2="0.635" y2="-1.27" width="0.127" layer="21"/>
<wire x1="0.635" y1="-1.27" x2="-0.635" y2="-1.27" width="0.127" layer="21"/>
<wire x1="-0.635" y1="-1.27" x2="-1.27" y2="-0.635" width="0.127" layer="21"/>
<wire x1="-1.27" y1="-0.635" x2="-1.27" y2="0.635" width="0.127" layer="21"/>
<wire x1="-1.27" y1="0.635" x2="-0.635" y2="1.27" width="0.127" layer="21"/>
<wire x1="1.27" y1="2.54" x2="1.27" y2="0" width="0.127" layer="21"/>
<wire x1="3.81" y1="2.54" x2="3.81" y2="0" width="0.127" layer="21"/>
<wire x1="-0.635" y1="-1.651" x2="0.635" y2="-1.651" width="0.127" layer="21"/>
<text x="-0.508" y="4.064" size="0.4064" layer="25">&gt;NAME</text>
<text x="1.778" y="4.064" size="0.4064" layer="25">&gt;VALUE</text>
</package>
<package name="2X3_SMD">
<circle x="0" y="1.27" radius="0.7" width="0.127" layer="51"/>
<circle x="-2.54" y="1.27" radius="0.7" width="0.127" layer="51"/>
<circle x="-2.54" y="-1.27" radius="0.7" width="0.127" layer="51"/>
<circle x="0" y="-1.27" radius="0.7" width="0.127" layer="51"/>
<circle x="2.54" y="-1.27" radius="0.7" width="0.127" layer="51"/>
<circle x="2.54" y="1.27" radius="0.7" width="0.127" layer="51"/>
<wire x1="-3.81" y1="-2.5" x2="-3.81" y2="2.5" width="0.127" layer="51"/>
<wire x1="-3.81" y1="2.5" x2="3.81" y2="2.5" width="0.127" layer="51"/>
<wire x1="3.81" y1="2.5" x2="3.81" y2="-2.5" width="0.127" layer="51"/>
<wire x1="3.81" y1="-2.5" x2="-3.81" y2="-2.5" width="0.127" layer="51"/>
<rectangle x1="-0.3" y1="2.55" x2="0.3" y2="3.35" layer="51"/>
<rectangle x1="-2.84" y1="2.55" x2="-2.24" y2="3.35" layer="51"/>
<rectangle x1="2.24" y1="2.55" x2="2.84" y2="3.35" layer="51"/>
<rectangle x1="-2.84" y1="-3.35" x2="-2.24" y2="-2.55" layer="51" rot="R180"/>
<rectangle x1="-0.3" y1="-3.35" x2="0.3" y2="-2.55" layer="51" rot="R180"/>
<rectangle x1="2.24" y1="-3.35" x2="2.84" y2="-2.55" layer="51" rot="R180"/>
<smd name="1" x="-2.54" y="-2.85" dx="1.02" dy="1.9" layer="1"/>
<smd name="2" x="-2.54" y="2.85" dx="1.02" dy="1.9" layer="1"/>
<smd name="3" x="0" y="-2.85" dx="1.02" dy="1.9" layer="1"/>
<smd name="4" x="0" y="2.85" dx="1.02" dy="1.9" layer="1"/>
<smd name="5" x="2.54" y="-2.85" dx="1.02" dy="1.9" layer="1"/>
<smd name="6" x="2.54" y="2.85" dx="1.02" dy="1.9" layer="1"/>
<text x="-3.502" y="0.1" size="0.4064" layer="25">&gt;Name</text>
<text x="-3.502" y="-0.408" size="0.4064" layer="27">&gt;Value</text>
</package>
<package name="WR-BHD-3X2">
<pad name="4" x="-1.27" y="0" drill="1.1" shape="offset" rot="R180"/>
<pad name="3" x="1.27" y="0" drill="1.1" shape="offset"/>
<pad name="6" x="-1.27" y="2.54" drill="1.1" shape="offset" rot="R180"/>
<pad name="5" x="1.27" y="2.54" drill="1.1" shape="offset"/>
<pad name="2" x="-1.27" y="-2.54" drill="1.1" shape="offset" rot="R180"/>
<pad name="1" x="1.27" y="-2.54" drill="1.1" shape="offset"/>
<wire x1="-4.55" y1="7.64" x2="4.55" y2="7.64" width="0.2032" layer="21"/>
<wire x1="4.55" y1="-7.64" x2="-4.55" y2="-7.64" width="0.2032" layer="21"/>
<wire x1="-4.55" y1="-7.64" x2="-4.55" y2="7.64" width="0.2032" layer="21"/>
<wire x1="4.55" y1="7.64" x2="4.55" y2="2.25" width="0.2032" layer="21"/>
<wire x1="4.55" y1="-2.25" x2="4.55" y2="-7.64" width="0.2032" layer="21"/>
<text x="-4" y="-6" size="0.7" layer="25">&gt;NAME</text>
<text x="-4" y="-7" size="0.7" layer="27">&gt;VALUE</text>
<text x="-4" y="6" size="0.8128" layer="21" font="vector" ratio="15">61200621621</text>
<circle x="3.3" y="-4.4" radius="0.25" width="0.5" layer="21"/>
</package>
<package name="1X01_LONGPAD">
<wire x1="-1.27" y1="0.635" x2="-1.27" y2="-0.635" width="0.2032" layer="21"/>
<wire x1="1.27" y1="0.635" x2="1.27" y2="-0.635" width="0.2032" layer="21"/>
<pad name="1" x="0" y="0" drill="1.1176" diameter="1.8796" shape="long" rot="R90"/>
<text x="-1.3462" y="1.8288" size="1.27" layer="25" ratio="10">&gt;NAME</text>
<text x="-1.27" y="-3.175" size="1.27" layer="27">&gt;VALUE</text>
<rectangle x1="-0.254" y1="-0.254" x2="0.254" y2="0.254" layer="51"/>
</package>
<package name="LUXEON-PAD">
<smd name="P$1" x="0" y="0" dx="3.9" dy="2.4" layer="1" roundness="25"/>
<text x="-1.5" y="2" size="1.27" layer="25" ratio="10">&gt;NAME</text>
<text x="-1.5" y="-3" size="1.27" layer="27">&gt;VALUE</text>
</package>
<package name="SMTSO-256-ET">
<wire x1="-2.286" y1="1.016" x2="-1.016" y2="2.286" width="1.016" layer="31" curve="-42.075022"/>
<wire x1="1.016" y1="2.286" x2="2.286" y2="1.016" width="1.016" layer="31" curve="-42.075022"/>
<wire x1="2.286" y1="-1.016" x2="1.016" y2="-2.286" width="1.016" layer="31" curve="-42.075022"/>
<wire x1="-1.016" y1="-2.286" x2="-2.286" y2="-1.016" width="1.016" layer="31" curve="-42.075022"/>
<circle x="0" y="0" radius="1.016" width="0.127" layer="51"/>
<pad name="P$1" x="0" y="0" drill="3.81" diameter="6.1976"/>
</package>
<package name="SMTRA-256-8-6">
<pad name="P$1" x="-1.9939" y="0" drill="1.3462"/>
<pad name="P$2" x="1.9939" y="0" drill="1.3462"/>
<smd name="P$3" x="0" y="0" dx="6.6548" dy="4.3434" layer="1" cream="no"/>
<text x="1.27" y="2.54" size="0.4064" layer="27">&gt;Value</text>
<text x="-2.54" y="2.54" size="0.4064" layer="25">&gt;Name</text>
<rectangle x1="-3.302" y1="0.762" x2="3.302" y2="2.032" layer="31"/>
<rectangle x1="-1.016" y1="0.508" x2="1.016" y2="0.762" layer="31"/>
<rectangle x1="-1.016" y1="-1.016" x2="1.016" y2="-0.762" layer="31"/>
<rectangle x1="-3.302" y1="-2.032" x2="3.302" y2="-0.762" layer="31"/>
<rectangle x1="-1.016" y1="-0.762" x2="1.016" y2="-0.508" layer="31"/>
<rectangle x1="2.794" y1="0.508" x2="3.302" y2="0.762" layer="31"/>
<rectangle x1="2.794" y1="-0.762" x2="3.302" y2="-0.508" layer="31"/>
<rectangle x1="-3.302" y1="-0.762" x2="-2.794" y2="-0.508" layer="31"/>
<rectangle x1="-3.302" y1="0.508" x2="-2.794" y2="0.762" layer="31"/>
</package>
<package name="1X01NS">
<pad name="1" x="0" y="0" drill="1.016" diameter="1.8796" rot="R90"/>
</package>
<package name="1X01">
<wire x1="1.27" y1="0.635" x2="0.635" y2="1.27" width="0.2032" layer="21"/>
<wire x1="0.635" y1="1.27" x2="-0.635" y2="1.27" width="0.2032" layer="21"/>
<wire x1="-0.635" y1="1.27" x2="-1.27" y2="0.635" width="0.2032" layer="21"/>
<wire x1="-1.27" y1="0.635" x2="-1.27" y2="-0.635" width="0.2032" layer="21"/>
<wire x1="-1.27" y1="-0.635" x2="-0.635" y2="-1.27" width="0.2032" layer="21"/>
<wire x1="-0.635" y1="-1.27" x2="0.635" y2="-1.27" width="0.2032" layer="21"/>
<wire x1="0.635" y1="-1.27" x2="1.27" y2="-0.635" width="0.2032" layer="21"/>
<wire x1="1.27" y1="-0.635" x2="1.27" y2="0.635" width="0.2032" layer="21"/>
<pad name="1" x="0" y="0" drill="1.016" diameter="1.8796" rot="R90"/>
<text x="1.1938" y="1.8288" size="1.27" layer="25">&gt;NAME</text>
<text x="-1.27" y="-3.175" size="1.27" layer="27">&gt;VALUE</text>
<rectangle x1="-0.254" y1="-0.254" x2="0.254" y2="0.254" layer="51"/>
</package>
<package name="1X01_2MM">
<pad name="1" x="0" y="0" drill="2" diameter="3.302" rot="R90"/>
<text x="-1.3462" y="1.8288" size="1.27" layer="25">&gt;NAME</text>
<text x="-1.27" y="-3.175" size="1.27" layer="27">&gt;VALUE</text>
</package>
<package name="1X01_OFFSET">
<wire x1="-1.27" y1="0.635" x2="-1.27" y2="-0.635" width="0.2032" layer="21"/>
<wire x1="-1.27" y1="-0.635" x2="-0.635" y2="-1.27" width="0.2032" layer="21"/>
<wire x1="-0.635" y1="-1.27" x2="0.635" y2="-1.27" width="0.2032" layer="21"/>
<wire x1="0.635" y1="-1.27" x2="1.27" y2="-0.635" width="0.2032" layer="21"/>
<wire x1="1.27" y1="-0.635" x2="1.27" y2="0.635" width="0.2032" layer="21"/>
<pad name="1" x="0" y="0" drill="1.1176" diameter="1.8796" shape="offset" rot="R90"/>
<text x="1.1938" y="1.8288" size="1.27" layer="25">&gt;NAME</text>
<text x="-1.27" y="-3.175" size="1.27" layer="27">&gt;VALUE</text>
<rectangle x1="-0.254" y1="-0.254" x2="0.254" y2="0.254" layer="51"/>
</package>
<package name="PAD-1.5X4.5">
<smd name="P$1" x="0" y="0" dx="1.5" dy="2" layer="1"/>
</package>
<package name="1X01_POGOPIN_HOLE_LARGE">
<circle x="0" y="0" radius="0.635" width="0.127" layer="51"/>
<pad name="1" x="0" y="0" drill="0.9" diameter="0.8128" rot="R90" thermals="no"/>
<hole x="0" y="0" drill="1.5494"/>
</package>
<package name="1X01_POGOPIN_HOLE_0.58">
<circle x="0" y="0" radius="0.635" width="0.127" layer="51"/>
<pad name="1" x="0" y="0" drill="0.9" diameter="0.8128" rot="R90" thermals="no"/>
<hole x="0" y="0" drill="1.4732"/>
</package>
<package name="SNAP-FEMALE">
<pad name="1" x="0" y="0" drill="2.921" diameter="4.572"/>
<polygon width="0.254" layer="1">
<vertex x="-4.0005" y="0" curve="-89.997136"/>
<vertex x="0" y="4.0005" curve="-90.002865"/>
<vertex x="4.0005" y="0" curve="-89.997136"/>
<vertex x="0" y="-4.0005" curve="-89.997136"/>
</polygon>
<polygon width="0.3556" layer="29">
<vertex x="-4.0005" y="0" curve="-90.002865"/>
<vertex x="0" y="4.0005" curve="-90.002865"/>
<vertex x="4.0005" y="0" curve="-89.997136"/>
<vertex x="0" y="-4.0005" curve="-89.997136"/>
</polygon>
<polygon width="0.3556" layer="31">
<vertex x="-4.0005" y="0" curve="-89.997136"/>
<vertex x="0" y="4.0005" curve="-90.002865"/>
<vertex x="4.0005" y="0" curve="-89.997136"/>
<vertex x="0" y="-4.0005" curve="-89.997136"/>
</polygon>
<polygon width="0.3556" layer="41">
<vertex x="-4.0005" y="0" curve="-89.997136"/>
<vertex x="0" y="4.0005" curve="-90.002865"/>
<vertex x="4.0005" y="0" curve="-89.997136"/>
<vertex x="0" y="-4.0005" curve="-89.997136"/>
</polygon>
</package>
<package name="SNAP-MALE">
<smd name="2" x="0" y="0" dx="7.62" dy="7.62" layer="1" roundness="100"/>
</package>
<package name="SPRING-CONNECTOR">
<smd name="P$2" x="0" y="0" dx="7.112" dy="7.112" layer="1" roundness="100"/>
<text x="-1.3462" y="5.6388" size="1.27" layer="25" ratio="10">&gt;NAME</text>
<text x="-1.27" y="-5.715" size="1.27" layer="27">&gt;VALUE</text>
</package>
<package name="1X01NS-KIT">
<pad name="1" x="0" y="0" drill="1.016" diameter="1.8796" rot="R90" stop="no"/>
<circle x="0" y="0" radius="0.508" width="0" layer="29"/>
<circle x="0" y="0" radius="0.9398" width="0" layer="30"/>
</package>
</packages>
<symbols>
<symbol name="M03X2">
<wire x1="-5.08" y1="5.08" x2="5.08" y2="5.08" width="0.254" layer="94"/>
<wire x1="5.08" y1="5.08" x2="5.08" y2="2.54" width="0.254" layer="94"/>
<wire x1="5.08" y1="2.54" x2="5.08" y2="0" width="0.254" layer="94"/>
<wire x1="5.08" y1="0" x2="5.08" y2="-2.54" width="0.254" layer="94"/>
<wire x1="5.08" y1="-2.54" x2="5.08" y2="-5.08" width="0.254" layer="94"/>
<wire x1="5.08" y1="-5.08" x2="-5.08" y2="-5.08" width="0.254" layer="94"/>
<wire x1="-5.08" y1="-5.08" x2="-5.08" y2="-2.54" width="0.254" layer="94"/>
<pin name="1" x="-7.62" y="2.54" visible="off" length="short"/>
<pin name="3" x="-7.62" y="0" visible="off" length="short"/>
<pin name="5" x="-7.62" y="-2.54" visible="off" length="short"/>
<pin name="6" x="7.62" y="-2.54" visible="off" length="short" rot="R180"/>
<pin name="4" x="7.62" y="0" visible="off" length="short" rot="R180"/>
<pin name="2" x="7.62" y="2.54" visible="off" length="short" rot="R180"/>
<text x="-5.08" y="5.588" size="1.27" layer="95">&gt;NAME</text>
<text x="-5.08" y="-7.112" size="1.27" layer="96">&gt;VALUE</text>
<circle x="-1.778" y="2.54" radius="1.016" width="0.1524" layer="94"/>
<circle x="1.778" y="2.54" radius="1.016" width="0.1524" layer="94"/>
<circle x="1.778" y="0" radius="1.016" width="0.1524" layer="94"/>
<circle x="1.778" y="-2.54" radius="1.016" width="0.1524" layer="94"/>
<circle x="-1.778" y="-2.54" radius="1.016" width="0.1524" layer="94"/>
<circle x="-1.778" y="0" radius="1.016" width="0.1524" layer="94"/>
<wire x1="-5.08" y1="-2.54" x2="-5.08" y2="0" width="0.254" layer="94"/>
<wire x1="-5.08" y1="0" x2="-5.08" y2="2.54" width="0.254" layer="94"/>
<wire x1="-5.08" y1="2.54" x2="-5.08" y2="5.08" width="0.254" layer="94"/>
<wire x1="-5.08" y1="2.54" x2="-2.794" y2="2.54" width="0.1524" layer="94"/>
<wire x1="-5.08" y1="0" x2="-2.794" y2="0" width="0.1524" layer="94"/>
<wire x1="-5.08" y1="-2.54" x2="-2.794" y2="-2.54" width="0.1524" layer="94"/>
<wire x1="5.08" y1="-2.54" x2="2.794" y2="-2.54" width="0.1524" layer="94"/>
<wire x1="5.08" y1="0" x2="2.794" y2="0" width="0.1524" layer="94"/>
<wire x1="5.08" y1="2.54" x2="2.794" y2="2.54" width="0.1524" layer="94"/>
<text x="-4.318" y="2.794" size="1.4224" layer="95">1</text>
<text x="3.302" y="2.794" size="1.4224" layer="95">2</text>
<text x="-4.318" y="0.254" size="1.4224" layer="95">3</text>
<text x="3.302" y="0.254" size="1.4224" layer="95">4</text>
<text x="-4.318" y="-2.286" size="1.4224" layer="95">5</text>
<text x="3.302" y="-2.286" size="1.4224" layer="95">6</text>
</symbol>
<symbol name="M02">
<wire x1="3.81" y1="-2.54" x2="-2.54" y2="-2.54" width="0.4064" layer="94"/>
<wire x1="1.27" y1="2.54" x2="2.54" y2="2.54" width="0.6096" layer="94"/>
<wire x1="1.27" y1="0" x2="2.54" y2="0" width="0.6096" layer="94"/>
<wire x1="-2.54" y1="5.08" x2="-2.54" y2="-2.54" width="0.4064" layer="94"/>
<wire x1="3.81" y1="-2.54" x2="3.81" y2="5.08" width="0.4064" layer="94"/>
<wire x1="-2.54" y1="5.08" x2="3.81" y2="5.08" width="0.4064" layer="94"/>
<text x="-2.54" y="-5.08" size="1.778" layer="96">&gt;VALUE</text>
<text x="-2.54" y="5.842" size="1.778" layer="95">&gt;NAME</text>
<pin name="1" x="7.62" y="0" visible="pad" length="middle" direction="pas" swaplevel="1" rot="R180"/>
<pin name="2" x="7.62" y="2.54" visible="pad" length="middle" direction="pas" swaplevel="1" rot="R180"/>
</symbol>
<symbol name="M01">
<wire x1="3.81" y1="-2.54" x2="-2.54" y2="-2.54" width="0.4064" layer="94"/>
<wire x1="1.27" y1="0" x2="2.54" y2="0" width="0.6096" layer="94"/>
<wire x1="-2.54" y1="2.54" x2="-2.54" y2="-2.54" width="0.4064" layer="94"/>
<wire x1="3.81" y1="-2.54" x2="3.81" y2="2.54" width="0.4064" layer="94"/>
<wire x1="-2.54" y1="2.54" x2="3.81" y2="2.54" width="0.4064" layer="94"/>
<text x="-2.54" y="-5.08" size="1.778" layer="96">&gt;VALUE</text>
<text x="-2.54" y="3.302" size="1.778" layer="95">&gt;NAME</text>
<pin name="1" x="7.62" y="0" visible="off" length="middle" direction="pas" swaplevel="1" rot="R180"/>
</symbol>
</symbols>
<devicesets>
<deviceset name="M03X2" prefix="JP" uservalue="yes">
<description>2x3 .1" header.&lt;br&gt;
Shrouded, with keying- CONN-10681&lt;br&gt;
SMT- CONN-11415&lt;br&gt;
Pogo pins- HW-11044</description>
<gates>
<gate name="G$1" symbol="M03X2" x="0" y="0"/>
</gates>
<devices>
<device name="SHROUD" package="2X3-SHROUDED">
<connects>
<connect gate="G$1" pin="1" pad="1"/>
<connect gate="G$1" pin="2" pad="2"/>
<connect gate="G$1" pin="3" pad="3"/>
<connect gate="G$1" pin="4" pad="4"/>
<connect gate="G$1" pin="5" pad="5"/>
<connect gate="G$1" pin="6" pad="6"/>
</connects>
<technologies>
<technology name="">
<attribute name="PROD_ID" value="CONN-10681"/>
</technology>
</technologies>
</device>
<device name="SMT" package="2X3_SMT_POSTS">
<connects>
<connect gate="G$1" pin="1" pad="1"/>
<connect gate="G$1" pin="2" pad="2"/>
<connect gate="G$1" pin="3" pad="3"/>
<connect gate="G$1" pin="4" pad="4"/>
<connect gate="G$1" pin="5" pad="5"/>
<connect gate="G$1" pin="6" pad="6"/>
</connects>
<technologies>
<technology name="">
<attribute name="PROD_ID" value="CONN-11415"/>
</technology>
</technologies>
</device>
<device name="POGO_PINS" package="2X3_POGO">
<connects>
<connect gate="G$1" pin="1" pad="P$1"/>
<connect gate="G$1" pin="2" pad="P$2"/>
<connect gate="G$1" pin="3" pad="P$3"/>
<connect gate="G$1" pin="4" pad="P$4"/>
<connect gate="G$1" pin="5" pad="P$5"/>
<connect gate="G$1" pin="6" pad="P$6"/>
</connects>
<technologies>
<technology name="">
<attribute name="PROD_ID" value="HW-11044"/>
</technology>
</technologies>
</device>
<device name="2X3_SILK_SM" package="2X3">
<connects>
<connect gate="G$1" pin="1" pad="1"/>
<connect gate="G$1" pin="2" pad="2"/>
<connect gate="G$1" pin="3" pad="3"/>
<connect gate="G$1" pin="4" pad="4"/>
<connect gate="G$1" pin="5" pad="5"/>
<connect gate="G$1" pin="6" pad="6"/>
</connects>
<technologies>
<technology name=""/>
</technologies>
</device>
<device name="NO_SILK" package="2X3-NS">
<connects>
<connect gate="G$1" pin="1" pad="1"/>
<connect gate="G$1" pin="2" pad="2"/>
<connect gate="G$1" pin="3" pad="3"/>
<connect gate="G$1" pin="4" pad="4"/>
<connect gate="G$1" pin="5" pad="5"/>
<connect gate="G$1" pin="6" pad="6"/>
</connects>
<technologies>
<technology name=""/>
</technologies>
</device>
<device name="FEMALE_SMD" package="2X3_SMD">
<connects>
<connect gate="G$1" pin="1" pad="1"/>
<connect gate="G$1" pin="2" pad="2"/>
<connect gate="G$1" pin="3" pad="3"/>
<connect gate="G$1" pin="4" pad="4"/>
<connect gate="G$1" pin="5" pad="5"/>
<connect gate="G$1" pin="6" pad="6"/>
</connects>
<technologies>
<technology name="">
<attribute name="PROD_ID" value="CONN-11290"/>
</technology>
</technologies>
</device>
<device name="" package="2X3_SMD">
<connects>
<connect gate="G$1" pin="1" pad="1"/>
<connect gate="G$1" pin="2" pad="2"/>
<connect gate="G$1" pin="3" pad="3"/>
<connect gate="G$1" pin="4" pad="4"/>
<connect gate="G$1" pin="5" pad="5"/>
<connect gate="G$1" pin="6" pad="6"/>
</connects>
<technologies>
<technology name="">
<attribute name="PROD_ID" value="CONN-11290" constant="no"/>
</technology>
</technologies>
</device>
<device name="WR" package="WR-BHD-3X2">
<connects>
<connect gate="G$1" pin="1" pad="1"/>
<connect gate="G$1" pin="2" pad="2"/>
<connect gate="G$1" pin="3" pad="3"/>
<connect gate="G$1" pin="4" pad="4"/>
<connect gate="G$1" pin="5" pad="5"/>
<connect gate="G$1" pin="6" pad="6"/>
</connects>
<technologies>
<technology name="">
<attribute name="DIGIKEY_PART_#" value="732-5394-ND" constant="no"/>
<attribute name="EURO" value="0.85" constant="no"/>
<attribute name="MANUFACTURER" value="Wurth Electronics Inc" constant="no"/>
<attribute name="MFG_PART_#" value="61200621621" constant="no"/>
</technology>
</technologies>
</device>
</devices>
</deviceset>
<deviceset name="M02" prefix="JP">
<description>Standard 2-pin 0.1" header. Use with &lt;br&gt;
- straight break away headers ( PRT-00116)&lt;br&gt;
- right angle break away headers (PRT-00553)&lt;br&gt;
- swiss pins (PRT-00743)&lt;br&gt;
- machine pins (PRT-00117)&lt;br&gt;
- female headers (PRT-00115)&lt;br&gt;&lt;br&gt;

 Molex polarized connector foot print use with: PRT-08233 with associated crimp pins and housings.&lt;br&gt;&lt;br&gt;

2.54_SCREWTERM for use with  PRT-10571.&lt;br&gt;&lt;br&gt;

3.5mm Screw Terminal footprints for  PRT-08084&lt;br&gt;&lt;br&gt;

5mm Screw Terminal footprints for use with PRT-08432</description>
<gates>
<gate name="G$1" symbol="M02" x="-2.54" y="0"/>
</gates>
<devices>
<device name="PTH" package="1X02">
<connects>
<connect gate="G$1" pin="1" pad="1"/>
<connect gate="G$1" pin="2" pad="2"/>
</connects>
<technologies>
<technology name=""/>
</technologies>
</device>
<device name="POLAR" package="MOLEX-1X2">
<connects>
<connect gate="G$1" pin="1" pad="1"/>
<connect gate="G$1" pin="2" pad="2"/>
</connects>
<technologies>
<technology name=""/>
</technologies>
</device>
<device name="3.5MM" package="SCREWTERMINAL-3.5MM-2">
<connects>
<connect gate="G$1" pin="1" pad="1"/>
<connect gate="G$1" pin="2" pad="2"/>
</connects>
<technologies>
<technology name=""/>
</technologies>
</device>
<device name="-JST-2MM-SMT" package="JST-2-SMD">
<connects>
<connect gate="G$1" pin="1" pad="2"/>
<connect gate="G$1" pin="2" pad="1"/>
</connects>
<technologies>
<technology name="">
<attribute name="PROD_ID" value="CONN-08352"/>
</technology>
</technologies>
</device>
<device name="PTH2" package="1X02_BIG">
<connects>
<connect gate="G$1" pin="1" pad="P$1"/>
<connect gate="G$1" pin="2" pad="P$2"/>
</connects>
<technologies>
<technology name=""/>
</technologies>
</device>
<device name="4UCON-15767" package="JST-2-SMD-VERT">
<connects>
<connect gate="G$1" pin="1" pad="GND"/>
<connect gate="G$1" pin="2" pad="VCC"/>
</connects>
<technologies>
<technology name=""/>
</technologies>
</device>
<device name="ROCKER" package="R_SW_TH">
<connects>
<connect gate="G$1" pin="1" pad="P$3"/>
<connect gate="G$1" pin="2" pad="P$4"/>
</connects>
<technologies>
<technology name=""/>
</technologies>
</device>
<device name="5MM" package="SCREWTERMINAL-5MM-2">
<connects>
<connect gate="G$1" pin="1" pad="1"/>
<connect gate="G$1" pin="2" pad="2"/>
</connects>
<technologies>
<technology name="">
<attribute name="STOREFRONT_ID" value="PRT-08432" constant="no"/>
</technology>
</technologies>
</device>
<device name="LOCK" package="1X02_LOCK">
<connects>
<connect gate="G$1" pin="1" pad="1"/>
<connect gate="G$1" pin="2" pad="2"/>
</connects>
<technologies>
<technology name=""/>
</technologies>
</device>
<device name="POLAR_LOCK" package="MOLEX-1X2_LOCK">
<connects>
<connect gate="G$1" pin="1" pad="1"/>
<connect gate="G$1" pin="2" pad="2"/>
</connects>
<technologies>
<technology name=""/>
</technologies>
</device>
<device name="LOCK_LONGPADS" package="1X02_LOCK_LONGPADS">
<connects>
<connect gate="G$1" pin="1" pad="1"/>
<connect gate="G$1" pin="2" pad="2"/>
</connects>
<technologies>
<technology name=""/>
</technologies>
</device>
<device name="3.5MM_LOCK" package="SCREWTERMINAL-3.5MM-2_LOCK">
<connects>
<connect gate="G$1" pin="1" pad="1"/>
<connect gate="G$1" pin="2" pad="2"/>
</connects>
<technologies>
<technology name=""/>
</technologies>
</device>
<device name="PTH3" package="1X02_LONGPADS">
<connects>
<connect gate="G$1" pin="1" pad="1"/>
<connect gate="G$1" pin="2" pad="2"/>
</connects>
<technologies>
<technology name=""/>
</technologies>
</device>
<device name="1X02_NO_SILK" package="1X02_NO_SILK">
<connects>
<connect gate="G$1" pin="1" pad="1"/>
<connect gate="G$1" pin="2" pad="2"/>
</connects>
<technologies>
<technology name=""/>
</technologies>
</device>
<device name="JST-PTH-2" package="JST-2-PTH">
<connects>
<connect gate="G$1" pin="1" pad="1"/>
<connect gate="G$1" pin="2" pad="2"/>
</connects>
<technologies>
<technology name="">
<attribute name="SKU" value="PRT-09914" constant="no"/>
</technology>
</technologies>
</device>
<device name="PTH4" package="1X02_XTRA_BIG">
<connects>
<connect gate="G$1" pin="1" pad="1"/>
<connect gate="G$1" pin="2" pad="2"/>
</connects>
<technologies>
<technology name=""/>
</technologies>
</device>
<device name="POGO_PIN_HOLES_ONLY" package="1X02_PP_HOLES_ONLY">
<connects>
<connect gate="G$1" pin="1" pad="1"/>
<connect gate="G$1" pin="2" pad="2"/>
</connects>
<technologies>
<technology name=""/>
</technologies>
</device>
<device name="3.5MM-NO_SILK" package="SCREWTERMINAL-3.5MM-2-NS">
<connects>
<connect gate="G$1" pin="1" pad="1"/>
<connect gate="G$1" pin="2" pad="2"/>
</connects>
<technologies>
<technology name=""/>
</technologies>
</device>
<device name="-JST-2-PTH-NO_SILK" package="JST-2-PTH-NS">
<connects>
<connect gate="G$1" pin="1" pad="1"/>
<connect gate="G$1" pin="2" pad="2"/>
</connects>
<technologies>
<technology name=""/>
</technologies>
</device>
<device name="JST-PTH-2-KIT" package="JST-2-PTH-KIT">
<connects>
<connect gate="G$1" pin="1" pad="1"/>
<connect gate="G$1" pin="2" pad="2"/>
</connects>
<technologies>
<technology name=""/>
</technologies>
</device>
<device name="SPRING-2.54-RA" package="SPRINGTERMINAL-2.54MM-2">
<connects>
<connect gate="G$1" pin="1" pad="1"/>
<connect gate="G$1" pin="2" pad="2"/>
</connects>
<technologies>
<technology name=""/>
</technologies>
</device>
<device name="2.54MM_SCREWTERM" package="1X02_2.54_SCREWTERM">
<connects>
<connect gate="G$1" pin="1" pad="P1"/>
<connect gate="G$1" pin="2" pad="P2"/>
</connects>
<technologies>
<technology name=""/>
</technologies>
</device>
<device name="JST-PTH-VERT" package="JST-2-PTH-VERT">
<connects>
<connect gate="G$1" pin="1" pad="1"/>
<connect gate="G$1" pin="2" pad="2"/>
</connects>
<technologies>
<technology name=""/>
</technologies>
</device>
</devices>
</deviceset>
<deviceset name="M01" prefix="JP">
<description>&lt;b&gt;Header 1&lt;/b&gt;
Standard 1-pin 0.1" header. Use with straight break away headers (SKU : PRT-00116), right angle break away headers (PRT-00553), swiss pins (PRT-00743), machine pins (PRT-00117), and female headers (PRT-00115).</description>
<gates>
<gate name="G$1" symbol="M01" x="0" y="0"/>
</gates>
<devices>
<device name="PTH_LONGPAD" package="1X01_LONGPAD">
<connects>
<connect gate="G$1" pin="1" pad="1"/>
</connects>
<technologies>
<technology name=""/>
</technologies>
</device>
<device name="SMD" package="LUXEON-PAD">
<connects>
<connect gate="G$1" pin="1" pad="P$1"/>
</connects>
<technologies>
<technology name=""/>
</technologies>
</device>
<device name="-SMTSO-256-ET" package="SMTSO-256-ET">
<connects>
<connect gate="G$1" pin="1" pad="P$1"/>
</connects>
<technologies>
<technology name=""/>
</technologies>
</device>
<device name="SMTRA-256-8-6" package="SMTRA-256-8-6">
<connects>
<connect gate="G$1" pin="1" pad="P$1"/>
</connects>
<technologies>
<technology name=""/>
</technologies>
</device>
<device name="SMDNS" package="1X01NS">
<connects>
<connect gate="G$1" pin="1" pad="1"/>
</connects>
<technologies>
<technology name=""/>
</technologies>
</device>
<device name="PTH" package="1X01">
<connects>
<connect gate="G$1" pin="1" pad="1"/>
</connects>
<technologies>
<technology name=""/>
</technologies>
</device>
<device name="PTH_2MM" package="1X01_2MM">
<connects>
<connect gate="G$1" pin="1" pad="1"/>
</connects>
<technologies>
<technology name=""/>
</technologies>
</device>
<device name="OFFSET" package="1X01_OFFSET">
<connects>
<connect gate="G$1" pin="1" pad="1"/>
</connects>
<technologies>
<technology name=""/>
</technologies>
</device>
<device name="SMD-4.5X1.5" package="PAD-1.5X4.5">
<connects>
<connect gate="G$1" pin="1" pad="P$1"/>
</connects>
<technologies>
<technology name=""/>
</technologies>
</device>
<device name="POGOPIN_HOLE_LARGE" package="1X01_POGOPIN_HOLE_LARGE">
<connects>
<connect gate="G$1" pin="1" pad="1"/>
</connects>
<technologies>
<technology name=""/>
</technologies>
</device>
<device name="POGOPIN_HOLE_0.58" package="1X01_POGOPIN_HOLE_0.58">
<connects>
<connect gate="G$1" pin="1" pad="1"/>
</connects>
<technologies>
<technology name=""/>
</technologies>
</device>
<device name="SNAP-FEMALE" package="SNAP-FEMALE">
<connects>
<connect gate="G$1" pin="1" pad="1"/>
</connects>
<technologies>
<technology name=""/>
</technologies>
</device>
<device name="SNAP-MALE" package="SNAP-MALE">
<connects>
<connect gate="G$1" pin="1" pad="2"/>
</connects>
<technologies>
<technology name=""/>
</technologies>
</device>
<device name="SPRING-CONN" package="SPRING-CONNECTOR">
<connects>
<connect gate="G$1" pin="1" pad="P$2"/>
</connects>
<technologies>
<technology name=""/>
</technologies>
</device>
<device name="NOSILK-KIT" package="1X01NS-KIT">
<connects>
<connect gate="G$1" pin="1" pad="1"/>
</connects>
<technologies>
<technology name=""/>
</technologies>
</device>
</devices>
</deviceset>
</devicesets>
</library>
</libraries>
<attributes>
</attributes>
<variantdefs>
</variantdefs>
<classes>
<class number="0" name="default" width="0" drill="0">
</class>
</classes>
<parts>
<part name="GND2" library="SparkFun-Aesthetics" deviceset="GND" device=""/>
<part name="J1" library="SparkFun-Connectors" deviceset="M03X2" device="WR"/>
<part name="JP1" library="SparkFun-Connectors" deviceset="M02" device="PTH"/>
<part name="GND3" library="SparkFun-Aesthetics" deviceset="GND" device=""/>
<part name="U$1" library="dubec" deviceset="AVX9258" device=""/>
<part name="GND4" library="SparkFun-Aesthetics" deviceset="GND" device=""/>
<part name="JP2" library="SparkFun-Connectors" deviceset="M01" device="PTH"/>
<part name="GND1" library="SparkFun-Aesthetics" deviceset="GND" device=""/>
</parts>
<sheets>
<sheet>
<plain>
<text x="53.34" y="45.72" size="1.016" layer="97" align="top-left">Pins 7 and 8 are unconnected
to avoid shorts, as the contacts
may contact whatever..</text>
</plain>
<instances>
<instance part="GND2" gate="1" x="91.44" y="53.34"/>
<instance part="J1" gate="G$1" x="81.28" y="60.96"/>
<instance part="JP1" gate="G$1" x="58.42" y="91.44" rot="R270"/>
<instance part="GND3" gate="1" x="55.88" y="78.74"/>
<instance part="U$1" gate="G$1" x="40.64" y="60.96"/>
<instance part="GND4" gate="1" x="53.34" y="50.8"/>
<instance part="JP2" gate="G$1" x="78.74" y="91.44" rot="R270"/>
<instance part="GND1" gate="1" x="78.74" y="78.74"/>
</instances>
<busses>
</busses>
<nets>
<net name="VCC" class="0">
<segment>
<pinref part="J1" gate="G$1" pin="2"/>
<wire x1="88.9" y1="63.5" x2="91.44" y2="63.5" width="0.1524" layer="91"/>
<label x="91.44" y="63.5" size="1.016" layer="95" xref="yes"/>
</segment>
<segment>
<pinref part="JP1" gate="G$1" pin="2"/>
<wire x1="60.96" y1="83.82" x2="60.96" y2="81.28" width="0.1524" layer="91"/>
<label x="60.96" y="81.28" size="1.016" layer="95" rot="R270" xref="yes"/>
</segment>
<segment>
<pinref part="U$1" gate="G$1" pin="2"/>
<wire x1="48.26" y1="66.04" x2="50.8" y2="66.04" width="0.1524" layer="91"/>
<label x="50.8" y="66.04" size="1.016" layer="95" xref="yes"/>
</segment>
</net>
<net name="MOSI" class="0">
<segment>
<pinref part="J1" gate="G$1" pin="4"/>
<wire x1="88.9" y1="60.96" x2="91.44" y2="60.96" width="0.1524" layer="91"/>
<label x="91.44" y="60.96" size="1.016" layer="95" xref="yes"/>
</segment>
<segment>
<pinref part="U$1" gate="G$1" pin="4"/>
<wire x1="48.26" y1="60.96" x2="50.8" y2="60.96" width="0.1524" layer="91"/>
<label x="50.8" y="60.96" size="1.016" layer="95" xref="yes"/>
</segment>
</net>
<net name="DGND" class="0">
<segment>
<pinref part="J1" gate="G$1" pin="6"/>
<wire x1="88.9" y1="58.42" x2="91.44" y2="58.42" width="0.1524" layer="91"/>
<wire x1="91.44" y1="58.42" x2="91.44" y2="55.88" width="0.1524" layer="91"/>
<pinref part="GND2" gate="1" pin="GND"/>
</segment>
<segment>
<pinref part="JP1" gate="G$1" pin="1"/>
<wire x1="58.42" y1="83.82" x2="55.88" y2="81.28" width="0.1524" layer="91"/>
<pinref part="GND3" gate="1" pin="GND"/>
</segment>
<segment>
<pinref part="U$1" gate="G$1" pin="6"/>
<wire x1="48.26" y1="55.88" x2="53.34" y2="55.88" width="0.1524" layer="91"/>
<pinref part="GND4" gate="1" pin="GND"/>
<wire x1="53.34" y1="55.88" x2="53.34" y2="53.34" width="0.1524" layer="91"/>
</segment>
</net>
<net name="MISO" class="0">
<segment>
<pinref part="J1" gate="G$1" pin="1"/>
<wire x1="73.66" y1="63.5" x2="71.12" y2="63.5" width="0.1524" layer="91"/>
<label x="71.12" y="63.5" size="1.016" layer="95" rot="R180" xref="yes"/>
</segment>
<segment>
<pinref part="U$1" gate="G$1" pin="1"/>
<wire x1="48.26" y1="68.58" x2="50.8" y2="68.58" width="0.1524" layer="91"/>
<label x="50.8" y="68.58" size="1.016" layer="95" xref="yes"/>
</segment>
</net>
<net name="SCK" class="0">
<segment>
<pinref part="J1" gate="G$1" pin="3"/>
<wire x1="73.66" y1="60.96" x2="71.12" y2="60.96" width="0.1524" layer="91"/>
<label x="71.12" y="60.96" size="1.016" layer="95" rot="R180" xref="yes"/>
</segment>
<segment>
<pinref part="U$1" gate="G$1" pin="3"/>
<wire x1="48.26" y1="63.5" x2="50.8" y2="63.5" width="0.1524" layer="91"/>
<label x="50.8" y="63.5" size="1.016" layer="95" xref="yes"/>
</segment>
</net>
<net name="RESET" class="0">
<segment>
<pinref part="J1" gate="G$1" pin="5"/>
<wire x1="73.66" y1="58.42" x2="71.12" y2="58.42" width="0.1524" layer="91"/>
<label x="71.12" y="58.42" size="1.016" layer="95" rot="R180" xref="yes"/>
</segment>
<segment>
<pinref part="U$1" gate="G$1" pin="5"/>
<wire x1="48.26" y1="58.42" x2="50.8" y2="58.42" width="0.1524" layer="91"/>
<label x="50.8" y="58.42" size="1.016" layer="95" xref="yes"/>
</segment>
</net>
<net name="GND" class="0">
<segment>
<pinref part="JP2" gate="G$1" pin="1"/>
<wire x1="78.74" y1="83.82" x2="78.74" y2="81.28" width="0.1524" layer="91"/>
<pinref part="GND1" gate="1" pin="GND"/>
</segment>
</net>
</nets>
</sheet>
</sheets>
</schematic>
</drawing>
<compatibility>
<note version="6.3" minversion="6.2.2" severity="warning">
Since Version 6.2.2 text objects can contain more than one line,
which will not be processed correctly with this version.
</note>
</compatibility>
</eagle>
